v 6.12323e-17 -0.707107 -0.707107
v -0.587785 -0.572061 -0.572061
v -0.951057 -0.218508 -0.218508
v -0.951057 0.218508 0.218508
v -0.587785 0.572061 0.572061
v -1.83697e-16 0.707107 0.707107
v 0.587785 0.572061 0.572061
v 0.951057 0.218508 0.218508
v 0.951057 -0.218508 -0.218508
v 0.587785 -0.572061 -0.572061
v -0.00670951 3.35604 -4.16951
v -0.581241 3.49238 -3.98705
v -0.91275 3.77678 -3.5498
v -0.874611 4.1006 -3.02477
v -0.481393 4.34016 -2.61252
v 0.11671 4.40396 -2.47049
v 0.691241 4.26762 -2.65295
v 1.02275 3.98322 -3.0902
v 0.984611 3.6594 -3.61523
v 0.591393 3.41984 -4.02748
v 0.141538 6.40071 -4.58214
v -0.414471 6.3515 -4.31681
v -0.720494 6.10691 -3.8388
v -0.659642 5.76037 -3.33069
v -0.255157 5.44425 -2.98656
v 0.338461 5.27929 -2.93786
v 0.89447 5.3285 -3.20319
v 1.20049 5.57309 -3.6812
v 1.13964 5.91963 -4.18931
v 0.735156 6.23575 -4.53343
v 0.586299 7.35988 -2.0246
v 0.00657064 7.16816 -1.92909
v -0.352218 6.66775 -1.87594
v -0.353021 6.04979 -1.88546
v 0.0044685 5.55032 -1.95401
v 0.583701 5.36012 -2.0554
v 1.16343 5.55184 -2.15092
v 1.52222 6.05226 -2.20406
v 1.52302 6.67022 -2.19454
v 1.16553 7.16969 -2.12599
v 1.13739 6.89935 1.32142
v 0.55489 6.70209 1.38265
v 0.188244 6.2061 1.34356
v 0.177497 5.60082 1.21907
v 0.526754 5.11747 1.05675
v 1.10261 4.94065 0.918578
v 1.68511 5.13791 0.857347
v 2.05176 5.6339 0.896441
v 2.0625 6.23917 1.02093
v 1.71325 6.72253 1.18325
v 1.90027 5.97112 5.23725
v 1.32066 5.7708 5.31396
v 0.952782 5.27606 5.27075
v 0.937164 4.67587 5.12412
v 1.27977 4.19949 4.93008
v 1.84973 4.02888 4.76275
v 2.42934 4.2292 4.68604
v 2.79722 4.72394 4.72925
v 2.81284 5.32413 4.87588
v 2.47023 5.80051 5.06992
v 2.90959 5.06028 9.07541
v 2.34224 4.85567 9.21037
v 1.98029 4.35478 9.21915
v 1.96201 3.74894 9.09838
v 2.29436 3.26955 8.8942
v 2.85041 3.09973 8.68459
v 3.41776 3.30433 8.54963
v 3.77971 3.80522 8.54085
v 3.79799 4.41106 8.66162
v 3.46564 4.89045 8.8658
v 4.16856 4.6399 12.0536
v 3.65514 4.44685 12.3384
v 3.33647 3.9456 12.5092
v 3.33427 3.32763 12.5008
v 3.64938 2.82897 12.3164
v 4.16144 2.6401 12.0264
v 4.67486 2.83316 11.7416
v 4.99353 3.3344 11.5708
v 4.99573 3.95237 11.5792
v 4.68062 4.45103 11.7636
v 5.45636 4.95987 13.2423
v 5.19735 4.98558 13.8029
v 5.15326 4.69595 14.347
v 5.34092 4.2016 14.667
v 5.68865 3.69136 14.6405
v 6.06364 3.36012 14.2777
v 6.32264 3.33441 13.7171
v 6.36674 3.62404 13.173
v 6.17908 4.11839 12.853
v 5.83134 4.62863 12.8795
v 7.00275 6.19045 12.6018
v 6.85019 6.58389 13.0533
v 7.02033 6.80014 13.6067
v 7.44816 6.7566 14.0506
v 7.97028 6.4699 14.2154
v 8.38725 6.04955 14.0382
v 8.53981 5.65611 13.5867
v 8.36967 5.43986 13.0333
v 7.94184 5.4834 12.5894
v 7.41972 5.7701 12.4246
v 9.33333 9.66667 9.33333
v 9.0688 10.1222 9.65658
v 9.15995 10.531 10.111
v 9.57197 10.737 10.523
v 10.1475 10.6615 10.7353
v 10.6667 10.3333 10.6667
v 10.9312 9.87782 10.3434
v 10.84 9.46897 9.88899
v 10.428 9.26296 9.47697
v 9.85251 9.33847 9.26473
vn -0.36788 -0.603464 -0.707457
vn -0.307959 -0.611731 -0.72866
vn -0.842203 -0.346039 -0.413462
vn -0.807601 -0.373075 -0.456724
vn -0.997962 0.0462361 0.0439763
vn -0.999885 0.0107274 -0.0107274
vn -0.765926 0.421024 0.485898
vn -0.808608 0.392925 0.437908
vn -0.24237 0.630228 0.73761
vn -0.308378 0.625652 0.716563
vn 0.367992 0.599391 0.710853
vn 0.308237 0.620584 0.721017
vn 0.842549 0.340566 0.417284
vn 0.808028 0.380168 0.45007
vn 0.997783 -0.0536309 -0.0394022
vn 0.999979 -0.00461245 0.00461245
vn 0.765109 -0.427996 -0.481069
vn 0.808312 -0.385742 -0.444787
vn 0.241924 -0.635157 -0.733517
vn 0.308121 -0.616746 -0.724352
vn -0.421102 -0.101645 -0.9013
vn -0.3208 -0.090035 -0.942858
vn -0.838885 -0.0138275 -0.544133
vn -0.799498 -0.0085275 -0.600608
vn -0.976695 0.103881 0.18782
vn -0.991847 0.127273 -0.00644941
vn -0.526927 0.219579 0.821056
vn -0.77127 0.340278 0.537917
vn 0.0108524 0.318857 0.947741
vn -0.250044 0.504571 0.826369
vn 0.375482 0.360724 0.853752
vn 0.360187 0.374212 0.854535
vn 0.795232 0.152073 0.586924
vn 0.825782 0.113072 0.552538
vn 0.947963 -0.19851 -0.248918
vn 0.99684 -0.0750145 -0.0261448
vn 0.510413 -0.244417 -0.824463
vn 0.75793 -0.15265 -0.634224
vn 0.0311401 -0.178298 -0.983484
vn 0.242994 -0.141881 -0.959596
vn -0.342538 0.897708 -0.277106
vn -0.217028 0.934718 -0.281426
vn -0.814216 0.578033 -0.0541258
vn -0.691773 0.718168 -0.0754049
vn -0.982768 -0.00157025 0.184838
vn -0.977054 0.102324 0.186801
vn -0.762442 -0.583959 0.278699
vn -0.71852 -0.650004 0.247434
vn -0.280929 -0.944962 0.167706
vn -0.276574 -0.946964 0.163601
vn 0.313946 -0.949441 -0.000280169
vn 0.164523 -0.97258 0.164377
vn 0.805871 -0.586454 -0.0815051
vn 0.695651 -0.713904 0.0800692
vn 0.976955 0.00201841 -0.213438
vn 0.98419 -0.0673581 -0.163809
vn 0.73538 0.575455 -0.357867
vn 0.743877 0.567418 -0.353105
vn 0.225763 0.893948 -0.387155
vn 0.276496 0.883018 -0.379248
vn -0.298755 0.937536 0.178244
vn -0.282136 0.942461 0.179348
vn -0.793823 0.570125 0.211667
vn -0.7827 0.584034 0.215138
vn -0.986447 -0.0160688 0.163292
vn -0.985742 -0.001311 0.168259
vn -0.801337 -0.596057 0.0507378
vn -0.808252 -0.586174 0.055937
vn -0.31052 -0.946999 -0.0822813
vn -0.323141 -0.943241 -0.0766589
vn 0.297855 -0.936693 -0.184089
vn 0.282281 -0.942551 -0.178646
vn 0.793234 -0.569356 -0.215902
vn 0.783283 -0.584182 -0.212602
vn 0.98596 0.0166641 -0.166145
vn 0.986243 0.0012648 -0.165299
vn 0.8006 0.596731 -0.054329
vn 0.808399 0.586097 -0.0546035
vn 0.309463 0.947801 0.07685
vn 0.323134 0.943248 0.0766045
vn -0.281782 0.919838 0.27294
vn -0.282718 0.919562 0.272905
vn -0.781162 0.556054 0.283884
vn -0.781653 0.55545 0.283713
vn -0.982254 -0.0200001 0.186487
vn -0.982299 -0.0208445 0.186154
vn -0.808263 -0.588551 0.0178308
vn -0.807654 -0.589401 0.0173288
vn -0.325387 -0.932337 -0.157704
vn -0.324317 -0.932631 -0.158172
vn 0.281784 -0.91984 -0.272934
vn 0.282666 -0.919496 -0.27318
vn 0.781174 -0.556067 -0.283825
vn 0.781619 -0.555412 -0.283883
vn 0.982288 0.0199563 -0.186312
vn 0.982283 0.0208626 -0.186241
vn 0.808304 0.588502 -0.0176371
vn 0.80763 0.589431 -0.0174686
vn 0.325407 0.932315 0.157793
vn 0.324273 0.932689 0.157915
vn -0.263572 0.920705 0.287806
vn -0.278498 0.916178 0.288196
vn -0.76221 0.556567 0.330558
vn -0.771575 0.545074 0.327972
vn -0.968704 -0.0200803 0.247405
vn -0.96965 -0.0339226 0.242132
vn -0.805468 -0.588435 0.0704633
vn -0.797766 -0.599612 0.0635212
vn -0.335039 -0.932761 -0.133065
vn -0.321415 -0.936551 -0.139875
vn 0.264251 -0.921176 -0.285668
vn 0.278034 -0.915648 -0.290318
vn 0.762816 -0.556969 -0.328479
vn 0.771088 -0.544534 -0.330009
vn 0.969294 0.0196073 -0.245122
vn 0.969186 0.0343712 -0.24392
vn 0.806118 0.587835 -0.0679973
vn 0.797334 0.600002 -0.0652378
vn 0.335751 0.932163 0.135439
vn 0.32098 0.936985 0.137951
vn -0.228172 0.946066 0.229992
vn -0.278732 0.930264 0.238573
vn -0.71772 0.584995 0.377701
vn -0.74782 0.54697 0.376283
vn -0.924616 -0.0019004 0.380896
vn -0.928392 -0.0454971 0.368808
vn -0.777452 -0.580661 0.241662
vn -0.755446 -0.617297 0.21965
vn -0.339393 -0.940551 0.0132946
vn -0.297142 -0.95472 -0.0147386
vn 0.233083 -0.946855 -0.221672
vn 0.276499 -0.928989 -0.246025
vn 0.721505 -0.584947 -0.370497
vn 0.745406 -0.54535 -0.383357
vn 0.928375 0.00176088 -0.371641
vn 0.926628 0.0464067 -0.373104
vn 0.782042 0.579241 -0.229979
vn 0.754252 0.617712 -0.222567
vn 0.34492 0.938629 -0.00228339
vn 0.295501 0.955291 0.00992316
vn -0.142129 0.983628 -0.110791
vn -0.343803 0.938894 0.0166612
vn -0.583694 0.735442 0.344132
vn -0.68382 0.583857 0.437609
vn -0.733136 0.150884 0.663133
vn -0.732251 -0.00667552 0.681003
vn -0.571582 -0.42595 0.701328
vn -0.507034 -0.562075 0.653444
vn -0.23432 -0.826287 0.512195
vn -0.115982 -0.913426 0.390129
vn 0.203176 -0.96932 0.138341
vn 0.332876 -0.942181 -0.0385899
vn 0.614781 -0.715805 -0.331162
vn 0.666287 -0.582316 -0.465801
vn 0.764403 -0.119839 -0.633503
vn 0.732186 0.00667669 -0.681072
vn 0.621378 0.456534 -0.636762
vn 0.526638 0.567031 -0.633347
vn 0.306343 0.839123 -0.449474
vn 0.122961 0.916781 -0.379992
vn -0.759847 0.649784 -0.020312
vn -0.680707 0.646664 -0.344185
vn -0.541611 0.60698 0.581578
vn -0.605089 0.722108 0.335302
vn -0.139005 0.290973 0.946579
vn -0.248556 0.458031 0.853479
vn 0.274909 -0.12899 0.952778
vn 0.165666 0.0618038 0.984243
vn 0.583078 -0.504632 0.636684
vn 0.508411 -0.306057 0.80489
vn 0.688715 -0.72162 0.0702514
vn 0.724433 -0.586864 0.361645
vn 0.502541 -0.667191 -0.549826
vn 0.678799 -0.669622 -0.301394
vn 0.0905379 -0.367241 -0.925709
vn 0.291449 -0.439326 -0.849735
vn -0.36371 0.0317092 -0.930972
vn -0.158194 -0.0566315 -0.985783
vn -0.691106 0.412867 -0.593223
vn -0.49128 0.327747 -0.806986
vn -0.796338 -0.0339131 -0.6039
vn -0.891235 0.146899 -0.429093
vn -0.901142 0.396288 -0.175784
vn -0.844723 0.532718 0.051527
vn -0.660256 0.67913 0.320693
vn -0.468873 0.712636 0.521831
vn -0.163621 0.701775 0.693355
vn 0.0860014 0.609601 0.788029
vn 0.394305 0.457104 0.797233
vn 0.597406 0.275009 0.75331
vn 0.801755 0.04257 0.596134
vn 0.88325 -0.162383 0.439888
vn 0.907246 -0.386544 0.165793
vn 0.836233 -0.546648 -0.0434739
vn 0.666134 -0.667728 -0.332272
vn 0.459068 -0.724904 -0.513586
vn 0.16885 -0.690371 -0.703476
vn -0.0964365 -0.622203 -0.776893
vn -0.389287 -0.447522 -0.805096
vn -0.606568 -0.289522 -0.740441
f 12//1 11//1 1//1
f 1//2 2//2 12//2
f 13//3 12//3 2//3
f 2//4 3//4 13//4
f 14//5 13//5 3//5
f 3//6 4//6 14//6
f 15//7 14//7 4//7
f 4//8 5//8 15//8
f 16//9 15//9 5//9
f 5//10 6//10 16//10
f 17//11 16//11 6//11
f 6//12 7//12 17//12
f 18//13 17//13 7//13
f 7//14 8//14 18//14
f 19//15 18//15 8//15
f 8//16 9//16 19//16
f 20//17 19//17 9//17
f 9//18 10//18 20//18
f 11//19 20//19 10//19
f 10//20 1//20 11//20
f 22//21 21//21 11//21
f 11//22 12//22 22//22
f 23//23 22//23 12//23
f 12//24 13//24 23//24
f 24//25 23//25 13//25
f 13//26 14//26 24//26
f 25//27 24//27 14//27
f 14//28 15//28 25//28
f 26//29 25//29 15//29
f 15//30 16//30 26//30
f 27//31 26//31 16//31
f 16//32 17//32 27//32
f 28//33 27//33 17//33
f 17//34 18//34 28//34
f 29//35 28//35 18//35
f 18//36 19//36 29//36
f 30//37 29//37 19//37
f 19//38 20//38 30//38
f 21//39 30//39 20//39
f 20//40 11//40 21//40
f 32//41 31//41 21//41
f 21//42 22//42 32//42
f 33//43 32//43 22//43
f 22//44 23//44 33//44
f 34//45 33//45 23//45
f 23//46 24//46 34//46
f 35//47 34//47 24//47
f 24//48 25//48 35//48
f 36//49 35//49 25//49
f 25//50 26//50 36//50
f 37//51 36//51 26//51
f 26//52 27//52 37//52
f 38//53 37//53 27//53
f 27//54 28//54 38//54
f 39//55 38//55 28//55
f 28//56 29//56 39//56
f 40//57 39//57 29//57
f 29//58 30//58 40//58
f 31//59 40//59 30//59
f 30//60 21//60 31//60
f 42//61 41//61 31//61
f 31//62 32//62 42//62
f 43//63 42//63 32//63
f 32//64 33//64 43//64
f 44//65 43//65 33//65
f 33//66 34//66 44//66
f 45//67 44//67 34//67
f 34//68 35//68 45//68
f 46//69 45//69 35//69
f 35//70 36//70 46//70
f 47//71 46//71 36//71
f 36//72 37//72 47//72
f 48//73 47//73 37//73
f 37//74 38//74 48//74
f 49//75 48//75 38//75
f 38//76 39//76 49//76
f 50//77 49//77 39//77
f 39//78 40//78 50//78
f 41//79 50//79 40//79
f 40//80 31//80 41//80
f 52//81 51//81 41//81
f 41//82 42//82 52//82
f 53//83 52//83 42//83
f 42//84 43//84 53//84
f 54//85 53//85 43//85
f 43//86 44//86 54//86
f 55//87 54//87 44//87
f 44//88 45//88 55//88
f 56//89 55//89 45//89
f 45//90 46//90 56//90
f 57//91 56//91 46//91
f 46//92 47//92 57//92
f 58//93 57//93 47//93
f 47//94 48//94 58//94
f 59//95 58//95 48//95
f 48//96 49//96 59//96
f 60//97 59//97 49//97
f 49//98 50//98 60//98
f 51//99 60//99 50//99
f 50//100 41//100 51//100
f 62//101 61//101 51//101
f 51//102 52//102 62//102
f 63//103 62//103 52//103
f 52//104 53//104 63//104
f 64//105 63//105 53//105
f 53//106 54//106 64//106
f 65//107 64//107 54//107
f 54//108 55//108 65//108
f 66//109 65//109 55//109
f 55//110 56//110 66//110
f 67//111 66//111 56//111
f 56//112 57//112 67//112
f 68//113 67//113 57//113
f 57//114 58//114 68//114
f 69//115 68//115 58//115
f 58//116 59//116 69//116
f 70//117 69//117 59//117
f 59//118 60//118 70//118
f 61//119 70//119 60//119
f 60//120 51//120 61//120
f 72//121 71//121 61//121
f 61//122 62//122 72//122
f 73//123 72//123 62//123
f 62//124 63//124 73//124
f 74//125 73//125 63//125
f 63//126 64//126 74//126
f 75//127 74//127 64//127
f 64//128 65//128 75//128
f 76//129 75//129 65//129
f 65//130 66//130 76//130
f 77//131 76//131 66//131
f 66//132 67//132 77//132
f 78//133 77//133 67//133
f 67//134 68//134 78//134
f 79//135 78//135 68//135
f 68//136 69//136 79//136
f 80//137 79//137 69//137
f 69//138 70//138 80//138
f 71//139 80//139 70//139
f 70//140 61//140 71//140
f 82//141 81//141 71//141
f 71//142 72//142 82//142
f 83//143 82//143 72//143
f 72//144 73//144 83//144
f 84//145 83//145 73//145
f 73//146 74//146 84//146
f 85//147 84//147 74//147
f 74//148 75//148 85//148
f 86//149 85//149 75//149
f 75//150 76//150 86//150
f 87//151 86//151 76//151
f 76//152 77//152 87//152
f 88//153 87//153 77//153
f 77//154 78//154 88//154
f 89//155 88//155 78//155
f 78//156 79//156 89//156
f 90//157 89//157 79//157
f 79//158 80//158 90//158
f 81//159 90//159 80//159
f 80//160 71//160 81//160
f 93//161 92//161 81//161
f 81//162 82//162 93//162
f 94//163 93//163 82//163
f 82//164 83//164 94//164
f 95//165 94//165 83//165
f 83//166 84//166 95//166
f 96//167 95//167 84//167
f 84//168 85//168 96//168
f 97//169 96//169 85//169
f 85//170 86//170 97//170
f 98//171 97//171 86//171
f 86//172 87//172 98//172
f 99//173 98//173 87//173
f 87//174 88//174 99//174
f 100//175 99//175 88//175
f 88//176 89//176 100//176
f 91//177 100//177 89//177
f 89//178 90//178 91//178
f 92//179 91//179 90//179
f 90//180 81//180 92//180
f 102//181 101//181 91//181
f 91//182 92//182 102//182
f 103//183 102//183 92//183
f 92//184 93//184 103//184
f 104//185 103//185 93//185
f 93//186 94//186 104//186
f 105//187 104//187 94//187
f 94//188 95//188 105//188
f 106//189 105//189 95//189
f 95//190 96//190 106//190
f 107//191 106//191 96//191
f 96//192 97//192 107//192
f 108//193 107//193 97//193
f 97//194 98//194 108//194
f 109//195 108//195 98//195
f 98//196 99//196 109//196
f 110//197 109//197 99//197
f 99//198 100//198 110//198
f 101//199 110//199 100//199
f 100//200 91//200 101//200
