v 6.12323e-17 -0.707107 -0.707107
v -0.587785 -0.572061 -0.572061
v -0.951057 -0.218508 -0.218508
v -0.951057 0.218508 0.218508
v -0.587785 0.572061 0.572061
v -1.83697e-16 0.707107 0.707107
v 0.587785 0.572061 0.572061
v 0.951057 0.218508 0.218508
v 0.951057 -0.218508 -0.218508
v 0.587785 -0.572061 -0.572061
v -0.00670951 3.35604 -4.16951
v -0.581241 3.49238 -3.98705
v -0.91275 3.77678 -3.5498
v -0.874611 4.1006 -3.02477
v -0.481393 4.34016 -2.61252
v 0.11671 4.40396 -2.47049
v 0.691241 4.26762 -2.65295
v 1.02275 3.98322 -3.0902
v 0.984611 3.6594 -3.61523
v 0.591393 3.41984 -4.02748
v 0.141538 6.40071 -4.58214
v -0.414471 6.3515 -4.31681
v -0.720494 6.10691 -3.8388
v -0.659642 5.76037 -3.33069
v -0.255157 5.44425 -2.98656
v 0.338461 5.27929 -2.93786
v 0.89447 5.3285 -3.20319
v 1.20049 5.57309 -3.6812
v 1.13964 5.91963 -4.18931
v 0.735156 6.23575 -4.53343
v 0.586299 7.35988 -2.0246
v 0.00657064 7.16816 -1.92909
v -0.352218 6.66775 -1.87594
v -0.353021 6.04979 -1.88546
v 0.0044685 5.55032 -1.95401
v 0.583701 5.36012 -2.0554
v 1.16343 5.55184 -2.15092
v 1.52222 6.05226 -2.20406
v 1.52302 6.67022 -2.19454
v 1.16553 7.16969 -2.12599
v 1.13739 6.89935 1.32142
v 0.55489 6.70209 1.38265
v 0.188244 6.2061 1.34356
v 0.177497 5.60082 1.21907
v 0.526754 5.11747 1.05675
v 1.10261 4.94065 0.918578
v 1.68511 5.13791 0.857347
v 2.05176 5.6339 0.896441
v 2.0625 6.23917 1.02093
v 1.71325 6.72253 1.18325
v 1.90027 5.97112 5.23725
v 1.32066 5.7708 5.31396
v 0.952782 5.27606 5.27075
v 0.937164 4.67587 5.12412
v 1.27977 4.19949 4.93008
v 1.84973 4.02888 4.76275
v 2.42934 4.2292 4.68604
v 2.79722 4.72394 4.72925
v 2.81284 5.32413 4.87588
v 2.47023 5.80051 5.06992
v 2.90959 5.06028 9.07541
v 2.34224 4.85567 9.21037
v 1.98029 4.35478 9.21915
v 1.96201 3.74894 9.09838
v 2.29436 3.26955 8.8942
v 2.85041 3.09973 8.68459
v 3.41776 3.30433 8.54963
v 3.77971 3.80522 8.54085
v 3.79799 4.41106 8.66162
v 3.46564 4.89045 8.8658
v 4.16856 4.6399 12.0536
v 3.65514 4.44685 12.3384
v 3.33647 3.9456 12.5092
v 3.33427 3.32763 12.5008
v 3.64938 2.82897 12.3164
v 4.16144 2.6401 12.0264
v 4.67486 2.83316 11.7416
v 4.99353 3.3344 11.5708
v 4.99573 3.95237 11.5792
v 4.68062 4.45103 11.7636
v 5.45636 4.95987 13.2423
v 5.19735 4.98558 13.8029
v 5.15326 4.69595 14.347
v 5.34092 4.2016 14.667
v 5.68865 3.69136 14.6405
v 6.06364 3.36012 14.2777
v 6.32264 3.33441 13.7171
v 6.36674 3.62404 13.173
v 6.17908 4.11839 12.853
v 5.83134 4.62863 12.8795
v 7.00275 6.19045 12.6018
v 6.85019 6.58389 13.0533
v 7.02033 6.80014 13.6067
v 7.44816 6.7566 14.0506
v 7.97028 6.4699 14.2154
v 8.38725 6.04955 14.0382
v 8.53981 5.65611 13.5867
v 8.36967 5.43986 13.0333
v 7.94184 5.4834 12.5894
v 7.41972 5.7701 12.4246
v 9.33333 9.66667 9.33333
v 9.0688 10.1222 9.65658
v 9.15995 10.531 10.111
v 9.57197 10.737 10.523
v 10.1475 10.6615 10.7353
v 10.6667 10.3333 10.6667
v 10.9312 9.87782 10.3434
v 10.84 9.46897 9.88899
v 10.428 9.26296 9.47697
v 9.85251 9.33847 9.26473
v 12.0601 13.4131 5.17267
v 11.5059 13.6867 5.16917
v 11.1634 14.1259 5.4371
v 11.1634 14.5629 5.87412
v 11.5059 14.8308 6.31329
v 12.0601 14.8273 6.58688
v 12.6143 14.5537 6.59038
v 12.9568 14.1146 6.32245
v 12.9568 13.6776 5.88543
v 12.6143 13.4096 5.44626
v 13.8276 17.2627 1.92388
v 13.275 17.5357 1.96961
v 12.9265 17.9026 2.32435
v 12.915 18.2232 2.85261
v 13.245 18.375 3.35261
v 13.7905 18.3001 3.63337
v 14.343 18.027 3.58765
v 14.6916 17.6601 3.2329
v 14.7031 17.3395 2.70464
v 14.373 17.1877 2.20464
v 14.7822 20.1735 1.64506
v 14.1839 20.2644 1.77034
v 13.7251 20.1126 2.15556
v 13.581 19.7761 2.65357
v 13.8067 19.3835 3.07415
v 14.316 19.0848 3.25666
v 14.9144 18.9939 3.13138
v 15.3732 19.1457 2.74617
v 15.5173 19.4822 2.24815
v 15.2915 19.8747 1.82757
v 14.8248 21.0736 4.26172
v 14.2106 21.0267 4.21238
v 13.7418 20.6267 4.16513
v 13.5976 20.0263 4.13802
v 13.8331 19.4549 4.14141
v 14.3583 19.1307 4.174
v 14.9726 19.1776 4.22335
v 15.4413 19.5776 4.2706
v 15.5855 20.178 4.2977
v 15.35 20.7494 4.29431
v 14.4472 20.592 7.62879
v 13.8371 20.5394 7.54533
v 13.3837 20.1429 7.40675
v 13.2602 19.5539 7.26598
v 13.5139 18.9974 7.1768
v 14.0477 18.686 7.17325
v 14.6578 18.7385 7.25671
v 15.1112 19.1351 7.39529
v 15.2346 19.724 7.53606
v 14.981 20.2805 7.62525
v 14.0247 19.6225 11.5859
v 13.4129 19.5667 11.5181
v 12.9597 19.1716 11.3752
v 12.838 18.588 11.212
v 13.0945 18.039 11.0906
v 13.6311 17.7341 11.0575
v 14.2428 17.7899 11.1254
v 14.6961 18.185 11.2682
v 14.8177 18.7685 11.4315
v 14.5613 19.3176 11.5528
v 13.8569 18.6095 15.5262
v 13.242 18.5483 15.5177
v 12.7806 18.1473 15.4266
v 12.649 17.5597 15.2876
v 12.8975 17.0098 15.1539
v 13.4311 16.7078 15.0765
v 14.0461 16.769 15.085
v 14.5075 17.17 15.1761
v 14.639 17.7576 15.315
v 14.3905 18.3075 15.4488
v 14.2428 17.9896 18.7039
v 13.6462 17.9312 18.854
v 13.1873 17.5243 18.9305
v 13.0416 16.9243 18.9041
v 13.2646 16.3603 18.785
v 13.7712 16.0479 18.6186
v 14.3679 16.1062 18.4685
v 14.8267 16.5132 18.392
v 14.9725 17.1132 18.4184
v 14.7494 17.6771 18.5375
v 15.2522 18.0309 20.1713
v 14.882 18.1329 20.6555
v 14.6439 17.8775 21.1655
v 14.6289 17.3622 21.5064
v 14.8427 16.7839 21.548
v 15.2037 16.3633 21.2745
v 15.5739 16.2613 20.7903
v 15.812 16.5167 20.2803
v 15.827 17.032 19.9394
v 15.6132 17.6103 19.8978
v 17.1512 18.8434 19.9488
v 16.9937 19.2745 20.3627
v 17.0746 19.4603 20.9466
v 17.3631 19.3299 21.4774
v 17.7489 18.933 21.7523
v 18.0847 18.4213 21.6664
v 18.2423 17.9903 21.2525
v 18.1613 17.8045 20.6686
v 17.8728 17.9349 20.1379
v 17.487 18.3318 19.8629
v 20.9382 21.5775 17.4225
v 20.72 22.0916 17.6872
v 20.7952 22.4802 18.1618
v 21.1351 22.595 18.6651
v 21.6099 22.3921 19.0047
v 22.0382 21.9489 19.0511
v 22.2564 21.4348 18.7864
v 22.1812 21.0462 18.3118
v 21.8413 20.9314 17.8085
v 21.3665 21.1343 17.4689
vn -0.36788 -0.603464 -0.707457
vn -0.307959 -0.611731 -0.72866
vn -0.842203 -0.346039 -0.413462
vn -0.807601 -0.373075 -0.456724
vn -0.997962 0.0462361 0.0439763
vn -0.999885 0.0107274 -0.0107274
vn -0.765926 0.421024 0.485898
vn -0.808608 0.392925 0.437908
vn -0.24237 0.630228 0.73761
vn -0.308378 0.625652 0.716563
vn 0.367992 0.599391 0.710853
vn 0.308237 0.620584 0.721017
vn 0.842549 0.340566 0.417284
vn 0.808028 0.380168 0.45007
vn 0.997783 -0.0536309 -0.0394022
vn 0.999979 -0.00461245 0.00461245
vn 0.765109 -0.427996 -0.481069
vn 0.808312 -0.385742 -0.444787
vn 0.241924 -0.635157 -0.733517
vn 0.308121 -0.616746 -0.724352
vn -0.421102 -0.101645 -0.9013
vn -0.3208 -0.090035 -0.942858
vn -0.838885 -0.0138275 -0.544133
vn -0.799498 -0.0085275 -0.600608
vn -0.976695 0.103881 0.18782
vn -0.991847 0.127273 -0.00644941
vn -0.526927 0.219579 0.821056
vn -0.77127 0.340278 0.537917
vn 0.0108524 0.318857 0.947741
vn -0.250044 0.504571 0.826369
vn 0.375482 0.360724 0.853752
vn 0.360187 0.374212 0.854535
vn 0.795232 0.152073 0.586924
vn 0.825782 0.113072 0.552538
vn 0.947963 -0.19851 -0.248918
vn 0.99684 -0.0750145 -0.0261448
vn 0.510413 -0.244417 -0.824463
vn 0.75793 -0.15265 -0.634224
vn 0.0311401 -0.178298 -0.983484
vn 0.242994 -0.141881 -0.959596
vn -0.342538 0.897708 -0.277106
vn -0.217028 0.934718 -0.281426
vn -0.814216 0.578033 -0.0541258
vn -0.691773 0.718168 -0.0754049
vn -0.982768 -0.00157025 0.184838
vn -0.977054 0.102324 0.186801
vn -0.762442 -0.583959 0.278699
vn -0.71852 -0.650004 0.247434
vn -0.280929 -0.944962 0.167706
vn -0.276574 -0.946964 0.163601
vn 0.313946 -0.949441 -0.000280169
vn 0.164523 -0.97258 0.164377
vn 0.805871 -0.586454 -0.0815051
vn 0.695651 -0.713904 0.0800692
vn 0.976955 0.00201841 -0.213438
vn 0.98419 -0.0673581 -0.163809
vn 0.73538 0.575455 -0.357867
vn 0.743877 0.567418 -0.353105
vn 0.225763 0.893948 -0.387155
vn 0.276496 0.883018 -0.379248
vn -0.298755 0.937536 0.178244
vn -0.282136 0.942461 0.179348
vn -0.793823 0.570125 0.211667
vn -0.7827 0.584034 0.215138
vn -0.986447 -0.0160688 0.163292
vn -0.985742 -0.001311 0.168259
vn -0.801337 -0.596057 0.0507378
vn -0.808252 -0.586174 0.055937
vn -0.31052 -0.946999 -0.0822813
vn -0.323141 -0.943241 -0.0766589
vn 0.297855 -0.936693 -0.184089
vn 0.282281 -0.942551 -0.178646
vn 0.793234 -0.569356 -0.215902
vn 0.783283 -0.584182 -0.212602
vn 0.98596 0.0166641 -0.166145
vn 0.986243 0.0012648 -0.165299
vn 0.8006 0.596731 -0.054329
vn 0.808399 0.586097 -0.0546035
vn 0.309463 0.947801 0.07685
vn 0.323134 0.943248 0.0766045
vn -0.281782 0.919838 0.27294
vn -0.282718 0.919562 0.272905
vn -0.781162 0.556054 0.283884
vn -0.781653 0.55545 0.283713
vn -0.982254 -0.0200001 0.186487
vn -0.982299 -0.0208445 0.186154
vn -0.808263 -0.588551 0.0178308
vn -0.807654 -0.589401 0.0173288
vn -0.325387 -0.932337 -0.157704
vn -0.324317 -0.932631 -0.158172
vn 0.281784 -0.91984 -0.272934
vn 0.282666 -0.919496 -0.27318
vn 0.781174 -0.556067 -0.283825
vn 0.781619 -0.555412 -0.283883
vn 0.982288 0.0199563 -0.186312
vn 0.982283 0.0208626 -0.186241
vn 0.808304 0.588502 -0.0176371
vn 0.80763 0.589431 -0.0174686
vn 0.325407 0.932315 0.157793
vn 0.324273 0.932689 0.157915
vn -0.263572 0.920705 0.287806
vn -0.278498 0.916178 0.288196
vn -0.76221 0.556567 0.330558
vn -0.771575 0.545074 0.327972
vn -0.968704 -0.0200803 0.247405
vn -0.96965 -0.0339226 0.242132
vn -0.805468 -0.588435 0.0704633
vn -0.797766 -0.599612 0.0635212
vn -0.335039 -0.932761 -0.133065
vn -0.321415 -0.936551 -0.139875
vn 0.264251 -0.921176 -0.285668
vn 0.278034 -0.915648 -0.290318
vn 0.762816 -0.556969 -0.328479
vn 0.771088 -0.544534 -0.330009
vn 0.969294 0.0196073 -0.245122
vn 0.969186 0.0343712 -0.24392
vn 0.806118 0.587835 -0.0679973
vn 0.797334 0.600002 -0.0652378
vn 0.335751 0.932163 0.135439
vn 0.32098 0.936985 0.137951
vn -0.228172 0.946066 0.229992
vn -0.278732 0.930264 0.238573
vn -0.71772 0.584995 0.377701
vn -0.74782 0.54697 0.376283
vn -0.924616 -0.0019004 0.380896
vn -0.928392 -0.0454971 0.368808
vn -0.777452 -0.580661 0.241662
vn -0.755446 -0.617297 0.21965
vn -0.339393 -0.940551 0.0132946
vn -0.297142 -0.95472 -0.0147386
vn 0.233083 -0.946855 -0.221672
vn 0.276499 -0.928989 -0.246025
vn 0.721505 -0.584947 -0.370497
vn 0.745406 -0.54535 -0.383357
vn 0.928375 0.00176088 -0.371641
vn 0.926628 0.0464067 -0.373104
vn 0.782042 0.579241 -0.229979
vn 0.754252 0.617712 -0.222567
vn 0.34492 0.938629 -0.00228339
vn 0.295501 0.955291 0.00992316
vn -0.142129 0.983628 -0.110791
vn -0.343803 0.938894 0.0166612
vn -0.583694 0.735442 0.344132
vn -0.68382 0.583857 0.437609
vn -0.733136 0.150884 0.663133
vn -0.732251 -0.00667552 0.681003
vn -0.571582 -0.42595 0.701328
vn -0.507034 -0.562075 0.653444
vn -0.23432 -0.826287 0.512195
vn -0.115982 -0.913426 0.390129
vn 0.203176 -0.96932 0.138341
vn 0.332876 -0.942181 -0.0385899
vn 0.614781 -0.715805 -0.331162
vn 0.666287 -0.582316 -0.465801
vn 0.764403 -0.119839 -0.633503
vn 0.732186 0.00667669 -0.681072
vn 0.621378 0.456534 -0.636762
vn 0.526638 0.567031 -0.633347
vn 0.306343 0.839123 -0.449474
vn 0.122961 0.916781 -0.379992
vn -0.759847 0.649784 -0.020312
vn -0.680707 0.646664 -0.344185
vn -0.541611 0.60698 0.581578
vn -0.605089 0.722108 0.335302
vn -0.139005 0.290973 0.946579
vn -0.248556 0.458031 0.853479
vn 0.274909 -0.12899 0.952778
vn 0.165666 0.0618038 0.984243
vn 0.583078 -0.504632 0.636684
vn 0.508411 -0.306057 0.80489
vn 0.688715 -0.72162 0.0702514
vn 0.724433 -0.586864 0.361645
vn 0.502541 -0.667191 -0.549826
vn 0.678799 -0.669622 -0.301394
vn 0.0905379 -0.367241 -0.925709
vn 0.291449 -0.439326 -0.849735
vn -0.36371 0.0317092 -0.930972
vn -0.158194 -0.0566315 -0.985783
vn -0.691106 0.412867 -0.593223
vn -0.49128 0.327747 -0.806986
vn -0.796338 -0.0339131 -0.6039
vn -0.891235 0.146899 -0.429093
vn -0.901142 0.396288 -0.175784
vn -0.844723 0.532718 0.051527
vn -0.660256 0.67913 0.320693
vn -0.468873 0.712636 0.521831
vn -0.163621 0.701775 0.693355
vn 0.0860014 0.609601 0.788029
vn 0.394305 0.457104 0.797233
vn 0.597406 0.275009 0.75331
vn 0.801755 0.04257 0.596134
vn 0.88325 -0.162383 0.439888
vn 0.907246 -0.386544 0.165793
vn 0.836233 -0.546648 -0.0434739
vn 0.666134 -0.667728 -0.332272
vn 0.459068 -0.724904 -0.513586
vn 0.16885 -0.690371 -0.703476
vn -0.0964365 -0.622203 -0.776893
vn -0.389287 -0.447522 -0.805096
vn -0.606568 -0.289522 -0.740441
vn -0.322329 -0.519728 -0.791193
vn -0.262786 -0.542488 -0.797903
vn -0.778144 -0.149458 -0.610044
vn -0.741696 -0.185114 -0.644686
vn -0.940355 0.281394 -0.191181
vn -0.937643 0.245789 -0.245789
vn -0.737413 0.60341 0.303512
vn -0.772965 0.584802 0.246031
vn -0.253818 0.690426 0.677413
vn -0.312168 0.700937 0.641279
vn 0.320673 0.515842 0.794403
vn 0.266936 0.550804 0.790798
vn 0.77628 0.144168 0.613681
vn 0.745339 0.191713 0.638526
vn 0.937365 -0.288405 0.19537
vn 0.940615 -0.240047 0.240046
vn 0.733862 -0.609851 -0.299212
vn 0.776 -0.577951 -0.252578
vn 0.251271 -0.694992 -0.673683
vn 0.315863 -0.692447 -0.64865
vn -0.208539 -0.0252567 -0.977688
vn -0.101442 -0.0388083 -0.994084
vn -0.665914 0.168735 -0.726696
vn -0.614219 0.162985 -0.772121
vn -0.940621 0.33649 -0.0447898
vn -0.903603 0.35723 -0.236406
vn -0.638562 0.360976 0.679658
vn -0.773744 0.527719 0.350474
vn -0.137996 0.334282 0.932316
vn -0.311591 0.572709 0.758232
vn 0.237799 0.286322 0.928155
vn 0.226373 0.303051 0.925697
vn 0.647257 -0.0229309 0.761927
vn 0.674972 -0.0690002 0.73461
vn 0.905629 -0.423389 -0.0240403
vn 0.928311 -0.308575 0.207414
vn 0.61794 -0.381309 -0.687571
vn 0.828092 -0.345067 -0.441807
vn 0.219144 -0.208662 -0.953119
vn 0.421834 -0.222538 -0.878938
vn -0.0460394 0.944851 -0.324248
vn 0.0820337 0.951096 -0.297804
vn -0.61865 0.751868 -0.227961
vn -0.465163 0.858527 -0.215764
vn -0.970499 0.235402 -0.0521337
vn -0.941087 0.335033 -0.0459087
vn -0.922168 -0.379582 0.0743208
vn -0.888956 -0.454984 0.0524138
vn -0.52712 -0.84693 0.0696717
vn -0.522521 -0.850017 0.0666554
vn 0.0722698 -0.996297 0.046577
vn -0.112868 -0.978847 0.170642
vn 0.640767 -0.761959 0.0939998
vn 0.468723 -0.855167 0.221332
vn 0.971865 -0.234414 0.0229947
vn 0.950637 -0.302091 0.0709247
vn 0.913308 0.375436 -0.157848
vn 0.918304 0.365761 -0.151448
vn 0.51481 0.804101 -0.297308
vn 0.558201 0.781753 -0.277981
vn -0.102702 0.986241 0.129539
vn -0.0861309 0.98714 0.13467
vn -0.663934 0.74698 0.0348114
vn -0.650988 0.757969 0.0412025
vn -0.972307 0.221568 -0.074345
vn -0.969334 0.235881 -0.0689316
vn -0.907959 -0.388685 -0.156635
vn -0.913374 -0.377306 -0.152931
vn -0.496577 -0.849082 -0.180198
vn -0.508915 -0.842296 -0.177604
vn 0.103427 -0.985377 -0.135405
vn 0.0860812 -0.987241 -0.133957
vn 0.664558 -0.746216 -0.0390424
vn 0.650905 -0.758177 -0.0386062
vn 0.972661 -0.220956 0.0714758
vn 0.969098 -0.235959 0.0719231
vn 0.90827 0.389409 0.152992
vn 0.91318 0.377234 0.154259
vn 0.497049 0.849955 0.174697
vn 0.508922 0.842303 0.17755
vn -0.113191 0.967757 0.225022
vn -0.11413 0.967707 0.22476
vn -0.672336 0.732393 0.107545
vn -0.672901 0.731917 0.107246
vn -0.974747 0.217425 -0.050937
vn -0.974911 0.216605 -0.0512957
vn -0.904963 -0.380703 -0.190019
vn -0.904471 -0.381686 -0.190387
vn -0.489363 -0.83349 -0.256549
vn -0.488311 -0.834042 -0.256761
vn 0.113191 -0.967758 -0.225017
vn 0.114159 -0.967639 -0.225037
vn 0.67233 -0.732406 -0.107485
vn 0.672917 -0.731877 -0.107418
vn 0.974728 -0.217469 0.051114
vn 0.97492 -0.216586 0.0512082
vn 0.904944 0.38065 0.190215
vn 0.904489 0.381716 0.190246
vn 0.489351 0.833469 0.256641
vn 0.488343 0.834103 0.256502
vn -0.0993231 0.964731 0.243779
vn -0.114554 0.963863 0.24051
vn -0.665347 0.72976 0.157366
vn -0.676277 0.720728 0.152318
vn -0.97635 0.215894 0.0114301
vn -0.979261 0.202522 0.00568979
vn -0.914707 -0.379743 -0.138229
vn -0.908442 -0.392616 -0.143477
vn -0.504368 -0.830924 -0.234903
vn -0.490813 -0.83801 -0.238414
vn 0.0993478 -0.965288 -0.241557
vn 0.114741 -0.9633 -0.242667
vn 0.665334 -0.730232 -0.155215
vn 0.676426 -0.720146 -0.154396
vn 0.976256 -0.216428 -0.00908675
vn 0.979351 -0.202026 -0.00752214
vn 0.914596 0.379078 0.140761
vn 0.908532 0.393045 0.141719
vn 0.50434 0.830242 0.23736
vn 0.490955 0.838482 0.236455
vn -0.0463444 0.97937 0.196688
vn -0.099758 0.976182 0.192655
vn -0.627812 0.748237 0.21446
vn -0.664819 0.718353 0.2049
vn -0.961962 0.226979 0.152015
vn -0.972949 0.185173 0.138136
vn -0.926812 -0.3739 0.0348997
vn -0.909512 -0.415303 0.0176562
vn -0.544806 -0.833279 -0.0939768
vn -0.501703 -0.857804 -0.111655
vn 0.0488249 -0.981056 -0.18747
vn 0.0997101 -0.97463 -0.200383
vn 0.629696 -0.748874 -0.206568
vn 0.664594 -0.716412 -0.212295
vn 0.963292 -0.227737 -0.142143
vn 0.972513 -0.183999 -0.142699
vn 0.928051 0.371771 -0.0225095
vn 0.909171 0.415906 -0.0207599
vn 0.54697 0.830424 0.105921
vn 0.501428 0.858606 0.106607
vn 0.123956 0.985833 -0.112995
vn -0.106771 0.993557 -0.0380005
vn -0.458079 0.86183 0.217744
vn -0.61024 0.740853 0.280613
vn -0.811946 0.338334 0.475683
vn -0.85246 0.185581 0.488745
vn -0.804596 -0.258989 0.534369
vn -0.764537 -0.407806 0.499176
vn -0.536403 -0.732782 0.418691
vn -0.416599 -0.848814 0.325515
vn -0.0695209 -0.985535 0.154555
vn 0.100859 -0.994802 0.0140314
vn 0.488959 -0.849711 -0.197255
vn 0.60072 -0.736028 -0.312088
vn 0.841759 -0.314696 -0.438644
vn 0.852416 -0.185569 -0.488826
vn 0.843534 0.278808 -0.459039
vn 0.779452 0.408573 -0.474892
vn 0.592546 0.730071 -0.340419
vn 0.421582 0.850717 -0.313927
vn -0.558448 0.80972 -0.180248
vn -0.408232 0.778774 -0.476296
vn -0.504649 0.733915 0.454642
vn -0.479313 0.853668 0.203742
vn -0.285583 0.342481 0.895069
vn -0.327549 0.527924 0.783586
vn 0.00421231 -0.162856 0.986641
vn -0.0612314 0.049138 0.996913
vn 0.280719 -0.609426 0.741482
vn 0.217482 -0.394122 0.892955
vn 0.462681 -0.861309 0.209938
vn 0.459437 -0.730493 0.50527
vn 0.446138 -0.782285 -0.434731
vn 0.553186 -0.819087 -0.151928
vn 0.216994 -0.404553 -0.888397
vn 0.371512 -0.519755 -0.769307
vn -0.116005 0.0899099 -0.989171
vn 0.0698611 -0.0459177 -0.996499
vn -0.41444 0.546991 -0.727351
vn -0.195728 0.411098 -0.890331
vn -0.616447 0.137487 -0.7753
vn -0.704501 0.340493 -0.62269
vn -0.714766 0.592328 -0.37183
vn -0.682994 0.718061 -0.133816
vn -0.538009 0.824505 0.175323
vn -0.397086 0.817695 0.416771
vn -0.152279 0.7401 0.655029
vn 0.039028 0.594431 0.803199
vn 0.291587 0.373889 0.880445
vn 0.450504 0.147875 0.880442
vn 0.625426 -0.130577 0.76928
vn 0.690779 -0.353344 0.630851
vn 0.725173 -0.58459 0.363839
vn 0.669808 -0.729362 0.139238
vn 0.548969 -0.815145 -0.184854
vn 0.383006 -0.827065 -0.411424
vn 0.162283 -0.730544 -0.663302
vn -0.0544585 -0.603898 -0.795199
vn -0.282744 -0.365988 -0.886627
vn -0.465595 -0.159446 -0.870516
vn -0.760759 -0.220985 -0.610255
vn -0.84201 -0.114957 -0.527071
vn -0.940817 0.23965 -0.23965
vn -0.933161 0.339459 -0.118232
vn -0.760759 0.610255 0.220984
vn -0.66863 0.662704 0.33728
vn -0.289361 0.749273 0.595702
vn -0.149461 0.731309 0.665469
vn 0.293314 0.603604 0.74137
vn 0.426043 0.519069 0.740982
vn 0.76471 0.228888 0.602352
vn 0.838059 0.107054 0.534974
vn 0.944768 -0.231747 0.231746
vn 0.929209 -0.347361 0.126134
vn 0.764711 -0.602352 -0.228887
vn 0.664678 -0.670607 -0.329377
vn 0.293315 -0.74137 -0.603603
vn 0.14551 -0.739212 -0.657566
vn -0.289364 -0.5957 -0.749273
vn -0.429995 -0.526972 -0.733079
f 12//1 11//1 1//1
f 1//2 2//2 12//2
f 13//3 12//3 2//3
f 2//4 3//4 13//4
f 14//5 13//5 3//5
f 3//6 4//6 14//6
f 15//7 14//7 4//7
f 4//8 5//8 15//8
f 16//9 15//9 5//9
f 5//10 6//10 16//10
f 17//11 16//11 6//11
f 6//12 7//12 17//12
f 18//13 17//13 7//13
f 7//14 8//14 18//14
f 19//15 18//15 8//15
f 8//16 9//16 19//16
f 20//17 19//17 9//17
f 9//18 10//18 20//18
f 11//19 20//19 10//19
f 10//20 1//20 11//20
f 22//21 21//21 11//21
f 11//22 12//22 22//22
f 23//23 22//23 12//23
f 12//24 13//24 23//24
f 24//25 23//25 13//25
f 13//26 14//26 24//26
f 25//27 24//27 14//27
f 14//28 15//28 25//28
f 26//29 25//29 15//29
f 15//30 16//30 26//30
f 27//31 26//31 16//31
f 16//32 17//32 27//32
f 28//33 27//33 17//33
f 17//34 18//34 28//34
f 29//35 28//35 18//35
f 18//36 19//36 29//36
f 30//37 29//37 19//37
f 19//38 20//38 30//38
f 21//39 30//39 20//39
f 20//40 11//40 21//40
f 32//41 31//41 21//41
f 21//42 22//42 32//42
f 33//43 32//43 22//43
f 22//44 23//44 33//44
f 34//45 33//45 23//45
f 23//46 24//46 34//46
f 35//47 34//47 24//47
f 24//48 25//48 35//48
f 36//49 35//49 25//49
f 25//50 26//50 36//50
f 37//51 36//51 26//51
f 26//52 27//52 37//52
f 38//53 37//53 27//53
f 27//54 28//54 38//54
f 39//55 38//55 28//55
f 28//56 29//56 39//56
f 40//57 39//57 29//57
f 29//58 30//58 40//58
f 31//59 40//59 30//59
f 30//60 21//60 31//60
f 42//61 41//61 31//61
f 31//62 32//62 42//62
f 43//63 42//63 32//63
f 32//64 33//64 43//64
f 44//65 43//65 33//65
f 33//66 34//66 44//66
f 45//67 44//67 34//67
f 34//68 35//68 45//68
f 46//69 45//69 35//69
f 35//70 36//70 46//70
f 47//71 46//71 36//71
f 36//72 37//72 47//72
f 48//73 47//73 37//73
f 37//74 38//74 48//74
f 49//75 48//75 38//75
f 38//76 39//76 49//76
f 50//77 49//77 39//77
f 39//78 40//78 50//78
f 41//79 50//79 40//79
f 40//80 31//80 41//80
f 52//81 51//81 41//81
f 41//82 42//82 52//82
f 53//83 52//83 42//83
f 42//84 43//84 53//84
f 54//85 53//85 43//85
f 43//86 44//86 54//86
f 55//87 54//87 44//87
f 44//88 45//88 55//88
f 56//89 55//89 45//89
f 45//90 46//90 56//90
f 57//91 56//91 46//91
f 46//92 47//92 57//92
f 58//93 57//93 47//93
f 47//94 48//94 58//94
f 59//95 58//95 48//95
f 48//96 49//96 59//96
f 60//97 59//97 49//97
f 49//98 50//98 60//98
f 51//99 60//99 50//99
f 50//100 41//100 51//100
f 62//101 61//101 51//101
f 51//102 52//102 62//102
f 63//103 62//103 52//103
f 52//104 53//104 63//104
f 64//105 63//105 53//105
f 53//106 54//106 64//106
f 65//107 64//107 54//107
f 54//108 55//108 65//108
f 66//109 65//109 55//109
f 55//110 56//110 66//110
f 67//111 66//111 56//111
f 56//112 57//112 67//112
f 68//113 67//113 57//113
f 57//114 58//114 68//114
f 69//115 68//115 58//115
f 58//116 59//116 69//116
f 70//117 69//117 59//117
f 59//118 60//118 70//118
f 61//119 70//119 60//119
f 60//120 51//120 61//120
f 72//121 71//121 61//121
f 61//122 62//122 72//122
f 73//123 72//123 62//123
f 62//124 63//124 73//124
f 74//125 73//125 63//125
f 63//126 64//126 74//126
f 75//127 74//127 64//127
f 64//128 65//128 75//128
f 76//129 75//129 65//129
f 65//130 66//130 76//130
f 77//131 76//131 66//131
f 66//132 67//132 77//132
f 78//133 77//133 67//133
f 67//134 68//134 78//134
f 79//135 78//135 68//135
f 68//136 69//136 79//136
f 80//137 79//137 69//137
f 69//138 70//138 80//138
f 71//139 80//139 70//139
f 70//140 61//140 71//140
f 82//141 81//141 71//141
f 71//142 72//142 82//142
f 83//143 82//143 72//143
f 72//144 73//144 83//144
f 84//145 83//145 73//145
f 73//146 74//146 84//146
f 85//147 84//147 74//147
f 74//148 75//148 85//148
f 86//149 85//149 75//149
f 75//150 76//150 86//150
f 87//151 86//151 76//151
f 76//152 77//152 87//152
f 88//153 87//153 77//153
f 77//154 78//154 88//154
f 89//155 88//155 78//155
f 78//156 79//156 89//156
f 90//157 89//157 79//157
f 79//158 80//158 90//158
f 81//159 90//159 80//159
f 80//160 71//160 81//160
f 93//161 92//161 81//161
f 81//162 82//162 93//162
f 94//163 93//163 82//163
f 82//164 83//164 94//164
f 95//165 94//165 83//165
f 83//166 84//166 95//166
f 96//167 95//167 84//167
f 84//168 85//168 96//168
f 97//169 96//169 85//169
f 85//170 86//170 97//170
f 98//171 97//171 86//171
f 86//172 87//172 98//172
f 99//173 98//173 87//173
f 87//174 88//174 99//174
f 100//175 99//175 88//175
f 88//176 89//176 100//176
f 91//177 100//177 89//177
f 89//178 90//178 91//178
f 92//179 91//179 90//179
f 90//180 81//180 92//180
f 102//181 101//181 91//181
f 91//182 92//182 102//182
f 103//183 102//183 92//183
f 92//184 93//184 103//184
f 104//185 103//185 93//185
f 93//186 94//186 104//186
f 105//187 104//187 94//187
f 94//188 95//188 105//188
f 106//189 105//189 95//189
f 95//190 96//190 106//190
f 107//191 106//191 96//191
f 96//192 97//192 107//192
f 108//193 107//193 97//193
f 97//194 98//194 108//194
f 109//195 108//195 98//195
f 98//196 99//196 109//196
f 110//197 109//197 99//197
f 99//198 100//198 110//198
f 101//199 110//199 100//199
f 100//200 91//200 101//200
f 122//201 121//201 111//201
f 111//202 112//202 122//202
f 123//203 122//203 112//203
f 112//204 113//204 123//204
f 124//205 123//205 113//205
f 113//206 114//206 124//206
f 125//207 124//207 114//207
f 114//208 115//208 125//208
f 126//209 125//209 115//209
f 115//210 116//210 126//210
f 127//211 126//211 116//211
f 116//212 117//212 127//212
f 128//213 127//213 117//213
f 117//214 118//214 128//214
f 129//215 128//215 118//215
f 118//216 119//216 129//216
f 130//217 129//217 119//217
f 119//218 120//218 130//218
f 121//219 130//219 120//219
f 120//220 111//220 121//220
f 132//221 131//221 121//221
f 121//222 122//222 132//222
f 133//223 132//223 122//223
f 122//224 123//224 133//224
f 134//225 133//225 123//225
f 123//226 124//226 134//226
f 135//227 134//227 124//227
f 124//228 125//228 135//228
f 136//229 135//229 125//229
f 125//230 126//230 136//230
f 137//231 136//231 126//231
f 126//232 127//232 137//232
f 138//233 137//233 127//233
f 127//234 128//234 138//234
f 139//235 138//235 128//235
f 128//236 129//236 139//236
f 140//237 139//237 129//237
f 129//238 130//238 140//238
f 131//239 140//239 130//239
f 130//240 121//240 131//240
f 142//241 141//241 131//241
f 131//242 132//242 142//242
f 143//243 142//243 132//243
f 132//244 133//244 143//244
f 144//245 143//245 133//245
f 133//246 134//246 144//246
f 145//247 144//247 134//247
f 134//248 135//248 145//248
f 146//249 145//249 135//249
f 135//250 136//250 146//250
f 147//251 146//251 136//251
f 136//252 137//252 147//252
f 148//253 147//253 137//253
f 137//254 138//254 148//254
f 149//255 148//255 138//255
f 138//256 139//256 149//256
f 150//257 149//257 139//257
f 139//258 140//258 150//258
f 141//259 150//259 140//259
f 140//260 131//260 141//260
f 152//261 151//261 141//261
f 141//262 142//262 152//262
f 153//263 152//263 142//263
f 142//264 143//264 153//264
f 154//265 153//265 143//265
f 143//266 144//266 154//266
f 155//267 154//267 144//267
f 144//268 145//268 155//268
f 156//269 155//269 145//269
f 145//270 146//270 156//270
f 157//271 156//271 146//271
f 146//272 147//272 157//272
f 158//273 157//273 147//273
f 147//274 148//274 158//274
f 159//275 158//275 148//275
f 148//276 149//276 159//276
f 160//277 159//277 149//277
f 149//278 150//278 160//278
f 151//279 160//279 150//279
f 150//280 141//280 151//280
f 162//281 161//281 151//281
f 151//282 152//282 162//282
f 163//283 162//283 152//283
f 152//284 153//284 163//284
f 164//285 163//285 153//285
f 153//286 154//286 164//286
f 165//287 164//287 154//287
f 154//288 155//288 165//288
f 166//289 165//289 155//289
f 155//290 156//290 166//290
f 167//291 166//291 156//291
f 156//292 157//292 167//292
f 168//293 167//293 157//293
f 157//294 158//294 168//294
f 169//295 168//295 158//295
f 158//296 159//296 169//296
f 170//297 169//297 159//297
f 159//298 160//298 170//298
f 161//299 170//299 160//299
f 160//300 151//300 161//300
f 172//301 171//301 161//301
f 161//302 162//302 172//302
f 173//303 172//303 162//303
f 162//304 163//304 173//304
f 174//305 173//305 163//305
f 163//306 164//306 174//306
f 175//307 174//307 164//307
f 164//308 165//308 175//308
f 176//309 175//309 165//309
f 165//310 166//310 176//310
f 177//311 176//311 166//311
f 166//312 167//312 177//312
f 178//313 177//313 167//313
f 167//314 168//314 178//314
f 179//315 178//315 168//315
f 168//316 169//316 179//316
f 180//317 179//317 169//317
f 169//318 170//318 180//318
f 171//319 180//319 170//319
f 170//320 161//320 171//320
f 182//321 181//321 171//321
f 171//322 172//322 182//322
f 183//323 182//323 172//323
f 172//324 173//324 183//324
f 184//325 183//325 173//325
f 173//326 174//326 184//326
f 185//327 184//327 174//327
f 174//328 175//328 185//328
f 186//329 185//329 175//329
f 175//330 176//330 186//330
f 187//331 186//331 176//331
f 176//332 177//332 187//332
f 188//333 187//333 177//333
f 177//334 178//334 188//334
f 189//335 188//335 178//335
f 178//336 179//336 189//336
f 190//337 189//337 179//337
f 179//338 180//338 190//338
f 181//339 190//339 180//339
f 180//340 171//340 181//340
f 192//341 191//341 181//341
f 181//342 182//342 192//342
f 193//343 192//343 182//343
f 182//344 183//344 193//344
f 194//345 193//345 183//345
f 183//346 184//346 194//346
f 195//347 194//347 184//347
f 184//348 185//348 195//348
f 196//349 195//349 185//349
f 185//350 186//350 196//350
f 197//351 196//351 186//351
f 186//352 187//352 197//352
f 198//353 197//353 187//353
f 187//354 188//354 198//354
f 199//355 198//355 188//355
f 188//356 189//356 199//356
f 200//357 199//357 189//357
f 189//358 190//358 200//358
f 191//359 200//359 190//359
f 190//360 181//360 191//360
f 203//361 202//361 191//361
f 191//362 192//362 203//362
f 204//363 203//363 192//363
f 192//364 193//364 204//364
f 205//365 204//365 193//365
f 193//366 194//366 205//366
f 206//367 205//367 194//367
f 194//368 195//368 206//368
f 207//369 206//369 195//369
f 195//370 196//370 207//370
f 208//371 207//371 196//371
f 196//372 197//372 208//372
f 209//373 208//373 197//373
f 197//374 198//374 209//374
f 210//375 209//375 198//375
f 198//376 199//376 210//376
f 201//377 210//377 199//377
f 199//378 200//378 201//378
f 202//379 201//379 200//379
f 200//380 191//380 202//380
f 212//381 211//381 201//381
f 201//382 202//382 212//382
f 213//383 212//383 202//383
f 202//384 203//384 213//384
f 214//385 213//385 203//385
f 203//386 204//386 214//386
f 215//387 214//387 204//387
f 204//388 205//388 215//388
f 216//389 215//389 205//389
f 205//390 206//390 216//390
f 217//391 216//391 206//391
f 206//392 207//392 217//392
f 218//393 217//393 207//393
f 207//394 208//394 218//394
f 219//395 218//395 208//395
f 208//396 209//396 219//396
f 220//397 219//397 209//397
f 209//398 210//398 220//398
f 211//399 220//399 210//399
f 210//400 201//400 211//400
f 113//401 112//401 101//401
f 101//402 102//402 113//402
f 114//403 113//403 102//403
f 102//404 103//404 114//404
f 115//405 114//405 103//405
f 103//406 104//406 115//406
f 116//407 115//407 104//407
f 104//408 105//408 116//408
f 117//409 116//409 105//409
f 105//410 106//410 117//410
f 118//411 117//411 106//411
f 106//412 107//412 118//412
f 119//413 118//413 107//413
f 107//414 108//414 119//414
f 120//415 119//415 108//415
f 108//416 109//416 120//416
f 111//417 120//417 109//417
f 109//418 110//418 111//418
f 112//419 111//419 110//419
f 110//420 101//420 112//420
