v 5.5 10.5 -0.707107
v 4.81699 9.81699 -0.965926
v 4.31699 9.31699 -0.258819
v 4.5 9.5 0.707107
v 5.18301 10.183 0.965926
v 5.68301 10.683 0.258819
v 3.79119 12.1252 -0.585691
v 3.24615 11.3899 -0.988455
v 2.77497 10.7354 -0.397227
v 2.84882 10.8161 0.596764
v 3.39386 11.5515 0.999528
v 3.86505 12.206 0.4083
v 2.39959 13.0707 -0.335064
v 2.02825 12.3546 -0.926077
v 1.69454 11.5004 -0.527387
v 1.73217 11.3623 0.462315
v 2.1035 12.0784 1.05333
v 2.43721 12.9326 0.654639
v 1.26785 13.4662 0.106052
v 0.931107 12.8926 -0.640636
v 0.83865 11.9054 -0.510202
v 1.08294 11.4919 0.36692
v 1.41968 12.0656 1.11361
v 1.51214 13.0527 0.983174
v 0.574011 13.4995 0.616099
v -0.0323774 13.0104 -0.0108833
v -0.0200523 12.0109 -0.0406463
v 0.598661 11.5005 0.556573
v 1.20505 11.9896 1.18356
v 1.19272 12.9891 1.21332
v 0.258203 13.5122 1.04496
v -0.572165 12.9977 0.830803
v -0.593882 12.0065 0.961236
v 0.214769 11.5297 1.30583
v 1.04514 12.0441 1.51999
v 1.06685 13.0354 1.38955
v 0.0824547 13.7004 1.66719
v -0.789291 13.2256 1.78831
v -0.808119 12.3088 2.187
v 0.0447972 11.8666 2.46457
v 0.916543 12.3414 2.34345
v 0.935371 13.2583 1.94476
v 0.00942198 14.3358 2.72878
v -0.858478 13.9292 3.01411
v -0.862364 13.1227 3.60534
v 0.00165149 12.7228 3.91124
v 0.869552 13.1294 3.6259
v 0.873437 13.9359 3.03467
v 6.12323e-17 15.7071 4.29289
v -0.866025 15.3536 4.64645
v -0.866025 14.6464 5.35355
v -1.83697e-16 14.2929 5.70711
v 0.866025 14.6464 5.35355
v 0.866025 15.3536 4.64645
v 5.5 10.5 -0.707107
v 4.81699 9.81699 -0.965926
v 4.31699 9.31699 -0.258819
v 4.5 9.5 0.707107
v 5.18301 10.183 0.965926
v 5.68301 10.683 0.258819
v 3.80251 12.1169 -0.596765
v 3.26518 11.3759 -0.999529
v 2.78268 10.7297 -0.408301
v 2.8375 10.8244 0.585691
v 3.37483 11.5654 0.988455
v 3.85734 12.2117 0.397227
v 2.46586 13.0418 -0.462316
v 2.19277 12.2827 -1.05333
v 1.79278 11.4575 -0.65464
v 1.66589 11.3912 0.335063
v 1.93899 12.1503 0.926076
v 2.33897 12.9755 0.527386
v 1.35591 13.4539 -0.366921
v 1.52328 12.8102 -1.11361
v 1.34276 11.8353 -0.983175
v 0.994877 11.5042 -0.106053
v 0.827511 12.148 0.640635
v 1.00803 13.1228 0.510201
v 0.51459 13.497 -0.556574
v 1.15995 13.0606 -1.18356
v 1.23169 12.0636 -1.21332
v 0.658081 11.503 -0.6161
v 0.0127238 11.9394 0.0108824
v -0.0590217 12.9364 0.0406454
v 0.9098 13.2487 -1.30583
v 1.14928 12.3017 -1.51999
v 0.475969 11.574 -1.38955
v -0.436827 11.7932 -1.04496
v -0.67631 12.7402 -0.830803
v -0.00299636 13.4679 -0.961237
v 0.475794 11.9643 -2.46457
v -0.515445 12.0169 -2.34345
v -0.927613 12.8362 -1.94476
v -0.348542 13.6027 -1.66719
v 0.642697 13.5501 -1.78831
v 1.05487 12.7308 -2.187
v 0.041792 12.7236 -3.91124
v -0.841731 13.0951 -3.6259
v -0.877986 13.9008 -3.03467
v -0.0307185 14.335 -2.72878
v 0.852804 13.9636 -3.01411
v 0.889059 13.1579 -3.60534
v 6.12323e-17 14.2929 -5.70711
v -0.866025 14.6464 -5.35355
v -0.866025 15.3536 -4.64645
v -1.83697e-16 15.7071 -4.29289
v 0.866025 15.3536 -4.64645
v 0.866025 14.6464 -5.35355
v -5.5 10.5 -0.707107
v -5.68301 10.683 0.258819
v -5.18301 10.183 0.965926
v -4.5 9.5 0.707107
v -4.31699 9.31699 -0.258819
v -4.81699 9.81699 -0.965926
v -3.79119 12.1252 -0.585691
v -3.86505 12.206 0.4083
v -3.39386 11.5515 0.999528
v -2.84882 10.8161 0.596764
v -2.77497 10.7354 -0.397227
v -3.24615 11.3899 -0.988455
v -2.39959 13.0707 -0.335064
v -2.43721 12.9326 0.654639
v -2.1035 12.0784 1.05333
v -1.73217 11.3623 0.462315
v -1.69454 11.5004 -0.527387
v -2.02825 12.3546 -0.926077
v -1.26785 13.4662 0.106052
v -1.51214 13.0527 0.983174
v -1.41968 12.0656 1.11361
v -1.08294 11.4919 0.36692
v -0.838651 11.9054 -0.510202
v -0.931107 12.8926 -0.640636
v -0.574011 13.4995 0.616099
v -1.19272 12.9891 1.21332
v -1.20505 11.9896 1.18356
v -0.598661 11.5005 0.556573
v 0.0200521 12.0109 -0.0406464
v 0.0323771 13.0104 -0.0108834
v -0.258203 13.5122 1.04496
v -1.06685 13.0354 1.38955
v -1.04514 12.0441 1.51999
v -0.214769 11.5297 1.30583
v 0.593882 12.0065 0.961236
v 0.572165 12.9977 0.830803
v -0.0824548 13.7004 1.66719
v -0.935371 13.2583 1.94476
v -0.916543 12.3414 2.34345
v -0.0447972 11.8666 2.46457
v 0.808119 12.3088 2.187
v 0.789291 13.2256 1.78831
v -0.00942201 14.3358 2.72878
v -0.873437 13.9359 3.03467
v -0.869552 13.1294 3.6259
v -0.00165149 12.7228 3.91124
v 0.862364 13.1227 3.60534
v 0.858478 13.9292 3.01411
v 6.12323e-17 15.7071 4.29289
v -0.866025 15.3536 4.64645
v -0.866025 14.6464 5.35355
v -1.83697e-16 14.2929 5.70711
v 0.866025 14.6464 5.35355
v 0.866025 15.3536 4.64645
v -5.5 10.5 -0.707107
v -5.68301 10.683 0.258819
v -5.18301 10.183 0.965926
v -4.5 9.5 0.707107
v -4.31699 9.31699 -0.258819
v -4.81699 9.81699 -0.965926
v -3.80251 12.1169 -0.596765
v -3.85734 12.2117 0.397227
v -3.37483 11.5654 0.988455
v -2.8375 10.8244 0.585691
v -2.78268 10.7297 -0.408301
v -3.26518 11.376 -0.999529
v -2.46586 13.0418 -0.462316
v -2.33897 12.9755 0.527386
v -1.93899 12.1503 0.926076
v -1.66589 11.3912 0.335063
v -1.79279 11.4575 -0.65464
v -2.19277 12.2827 -1.05333
v -1.35591 13.4539 -0.366921
v -1.00803 13.1228 0.510201
v -0.827511 12.148 0.640635
v -0.994878 11.5042 -0.106053
v -1.34276 11.8353 -0.983175
v -1.52328 12.8102 -1.11361
v -0.514591 13.497 -0.556574
v 0.0590214 12.9364 0.0406455
v -0.0127243 11.9394 0.0108826
v -0.658082 11.503 -0.6161
v -1.23169 12.0636 -1.21332
v -1.15995 13.0606 -1.18356
v -0.9098 13.2487 -1.30583
v 0.00299671 13.4679 -0.961237
v 0.67631 12.7402 -0.830803
v 0.436827 11.7932 -1.04496
v -0.475969 11.574 -1.38955
v -1.14928 12.3017 -1.51999
v -0.475795 11.9643 -2.46457
v -1.05487 12.7308 -2.187
v -0.642697 13.5501 -1.78831
v 0.348543 13.6027 -1.66719
v 0.927614 12.8362 -1.94476
v 0.515445 12.0169 -2.34345
v -0.041792 12.7236 -3.91124
v -0.889059 13.1579 -3.60534
v -0.852804 13.9636 -3.01411
v 0.0307185 14.335 -2.72878
v 0.877986 13.9008 -3.03467
v 0.84173 13.0951 -3.6259
v 6.12323e-17 14.2929 -5.70711
v -0.866025 14.6464 -5.35355
v -0.866025 15.3536 -4.64645
v -1.83697e-16 15.7071 -4.29289
v 0.866025 15.3536 -4.64645
v 0.866025 14.6464 -5.35355
v -4.68301 4.8811 -0.707108
v -5.1494 5.31699 -0.707108
v -4.68301 5.31699 -0.927744
v -4.68301 4.61264 0.292892
v -5.38736 5.31699 0.292892
v -4.68301 5.31699 0.913626
v -4.68301 6.12662 -0.707108
v -4.68301 6.31699 -0.478216
v -4.94872 6.31699 0.292892
v -4.68301 6.31699 0.506941
v -4.68301 6.53862 0.292892
v -4.00914 5.31699 -0.707108
v -3.68301 5.31699 -0.391112
v -3.68301 5.02605 0.292892
v -3.68301 5.31699 0.574694
v -4.4912 6.31699 -0.707108
v -3.68301 6.31699 -0.931017
v -3.68301 5.64518 -0.707108
v -3.68301 6.31699 1.006
v -3.68301 6.90672 -0.707108
v -3.68301 7.29157 0.292892
v -3.34515 5.31699 0.292892
v -2.68301 6.31699 -0.719303
v -2.68301 6.29665 -0.707108
v -2.68301 5.80891 0.292892
v -2.68301 6.31699 0.774292
v -3.00417 7.31699 -0.707108
v -2.68301 7.31699 -0.794579
v -3.64927 7.31699 0.292892
v -2.68301 7.31699 0.833001
v -2.68301 7.46276 -0.707108
v -2.68301 7.88344 0.292892
v -2.62955 6.31699 -0.707108
v -1.78925 6.31699 0.292892
v -1.68301 6.67713 -0.707108
v -1.68301 7.31699 -1.06935
v -1.68301 6.37651 0.292892
v -1.68301 7.31699 1.05454
v -1.68301 7.8889 -0.707108
v -1.68301 8.22486 0.292892
v -0.683014 6.91937 -1.70711
v -1.00683 7.31699 -1.70711
v -0.683014 7.31699 -2.58812
v -0.683014 6.5125 -0.707108
v -0.683014 6.56519 0.292892
v -1.35241 7.31699 1.29289
v -0.683014 6.72185 1.29289
v -0.683014 7.13115 2.29289
v -0.856838 7.31699 2.29289
v -0.683014 7.31699 2.60945
v -0.683014 8.01137 -3.70711
v -0.901755 8.31699 -3.70711
v -0.683014 8.31699 -4.06827
v -0.683014 7.4084 -2.70711
v -1.01153 8.31699 -2.70711
v -0.786488 8.31699 -1.70711
v -0.940707 8.31699 -0.707108
v -1.02202 8.31699 0.292892
v -0.683014 8.27877 1.29289
v -0.683014 8.31699 0.966826
v -0.683014 8.31699 1.35722
v -0.979519 8.31699 2.29289
v -0.683014 7.87707 3.29289
v -0.932513 8.31699 3.29289
v -0.683014 8.31699 3.92013
v -0.683014 8.91931 -4.70711
v -0.926105 9.31699 -4.70711
v -0.683014 9.31699 -5.15462
v -0.920886 9.31699 -3.70711
v -0.683014 9.31699 -3.25922
v -0.683014 8.84881 -2.70711
v -0.683014 8.43029 -1.70711
v -0.683014 8.40502 -0.707108
v -0.683014 8.36788 0.292892
v -0.683014 8.70756 2.29289
v -0.683014 9.31699 3.28287
v -0.689166 9.31699 3.29289
v -0.683014 8.70024 4.29289
v -0.921963 9.31699 4.29289
v -0.683014 9.31699 5.05615
v -0.683014 10.2903 -4.70711
v -0.683014 9.69976 -3.70711
v -0.683014 9.32468 3.29289
v -0.683014 10.0852 4.29289
v 0.316986 7.08841 -2.70711
v -0.536125 7.31699 -2.70711
v 0.316986 7.31699 -3.10902
v 0.316986 6.64953 -1.70711
v 0.316986 6.55159 -0.707108
v 0.316986 6.68036 0.292892
v 0.316986 6.52831 1.29289
v 0.316986 6.89191 2.29289
v 0.316986 7.31699 2.99035
v 0.316986 8.31699 -4.3947
v 0.316986 7.7151 -3.70711
v -0.124369 8.31699 0.292892
v 0.316986 8.26132 0.292892
v 0.316986 8.31699 0.134798
v -0.59061 8.31699 1.29289
v 0.316986 8.31699 0.435445
v 0.316986 7.50171 3.29289
v 0.172088 8.31699 4.29289
v 0.316986 8.27651 4.29289
v 0.316986 8.31699 4.33911
v 0.316986 9.31699 -5.51645
v 0.316986 8.58543 -4.70711
v 0.316986 9.16551 -2.70711
v 0.316986 9.31699 -2.90452
v 0.316986 8.68242 -1.70711
v 0.316986 8.50477 -0.707108
v 0.316986 8.54843 1.29289
v 0.316986 8.9558 2.29289
v 0.316986 9.31699 2.85934
v -0.310769 9.31699 5.29289
v 0.316986 9.12298 5.29289
v 0.316986 9.31699 5.4612
v 0.316986 10.3048 -4.70711
v 0.316986 10.0272 -3.70711
v 0.316986 9.65972 3.29289
v -0.322138 10.317 4.29289
v 0.316986 10.317 4.06747
v 0.316986 9.55555 5.29289
v 0.316986 10.317 4.53538
v 0.316986 10.4835 4.29289
v 0.569317 7.31699 -2.70711
v 1.10025 7.31699 -1.70711
v 1.31699 7.31699 -1.41255
v 1.31699 6.70586 -0.707108
v 1.31699 6.43963 0.292892
v 1.18685 7.31699 1.29289
v 1.31699 7.31699 1.17689
v 0.821165 7.31699 2.29289
v 0.839939 8.31699 -3.70711
v 0.962236 8.31699 -2.70711
v 0.743904 8.31699 -1.70711
v 1.1711 8.31699 -0.707108
v 1.31699 8.25245 -0.707108
v 0.618287 8.31699 0.292892
v 1.31699 8.31699 -0.425368
v 1.31699 8.31699 0.493082
v 0.710642 8.31699 1.29289
v 0.905575 8.31699 2.29289
v 0.947705 8.31699 3.29289
v 0.364803 8.31699 4.29289
v 0.882445 9.31699 -4.70711
v 0.875547 9.31699 -3.70711
v 1.31699 8.40494 0.292892
v 0.666414 9.31699 3.29289
v 0.939829 9.31699 4.29289
v 0.530529 9.31699 5.29289
v 0.534573 10.317 4.29289
v 2.31698 6.31253 -0.707108
v 2.30727 6.31699 -0.707108
v 2.31698 6.31699 -0.710436
v 2.31698 5.98277 0.292892
v 1.60399 6.31699 0.292892
v 2.31698 6.31699 0.688951
v 2.31698 7.31699 -1.02337
v 2.31698 7.31699 0.986278
v 2.31698 7.80835 -0.707108
v 1.55868 8.31699 0.292892
v 2.31698 8.06137 0.292892
v 3.31698 6.31699 -1.01492
v 3.31698 5.70057 -0.707108
v 3.31698 5.31929 0.292892
v 3.31698 6.31699 0.971432
v 3.31698 7.1864 -0.707108
v 3.18344 7.31699 -0.707108
v 3.31698 7.31699 -0.538732
v 3.31698 7.31699 0.58837
v 3.31698 7.56491 0.292892
v 4.31698 4.82984 -0.707108
v 3.71647 5.31699 -0.707108
v 4.31698 5.31699 -0.994604
v 4.31698 4.47113 0.292892
v 3.31931 5.31699 0.292892
v 4.31698 5.31699 0.934742
v 4.31698 6.31699 -0.758318
v 4.31698 6.31699 0.772062
v 4.31698 6.40371 -0.707108
v 3.69887 7.31699 0.292892
v 4.31698 6.8477 0.292892
v 5.31698 5.31699 -0.718237
v 5.31698 5.30284 -0.707108
v 5.31698 5.30284 0.292892
v 5.31698 5.31699 0.319362
v 5.31698 5.33883 -0.707108
v 4.41253 6.31699 -0.707108
v 4.95336 6.31699 0.292892
v 5.31698 5.35682 0.292892
v 5.32905 5.31699 -0.707108
v 5.33063 5.31699 0.292892
v -4.68301 -0.118903 -0.707108
v -5.1494 0.316987 -0.707108
v -4.68301 0.316987 -0.927744
v -4.68301 -0.38736 0.292892
v -5.38736 0.316987 0.292892
v -4.68301 0.316987 0.913626
v -4.68301 1.12662 -0.707108
v -4.68301 1.31699 -0.478216
v -4.94872 1.31699 0.292892
v -4.68301 1.31699 0.506941
v -4.68301 1.53862 0.292892
v -4.00914 0.316987 -0.707108
v -3.68301 0.316987 -0.391112
v -3.68301 0.026053 0.292892
v -3.68301 0.316987 0.574694
v -4.4912 1.31699 -0.707108
v -3.68301 1.31699 -0.931017
v -3.68301 0.645181 -0.707108
v -3.68301 1.31699 1.006
v -3.68301 1.90672 -0.707108
v -3.68301 2.29157 0.292892
v -3.34515 0.316987 0.292892
v -2.68301 1.31699 -0.719303
v -2.68301 1.29665 -0.707108
v -2.68301 0.808911 0.292892
v -2.68301 1.31699 0.774292
v -3.00417 2.31699 -0.707108
v -2.68301 2.31699 -0.794579
v -3.64927 2.31699 0.292892
v -2.68301 2.31699 0.833001
v -2.68301 2.46276 -0.707108
v -2.68301 2.88344 0.292892
v -2.62955 1.31699 -0.707108
v -1.78925 1.31699 0.292892
v -1.68301 1.67713 -0.707108
v -1.68301 2.31699 -1.06935
v -1.68301 1.37651 0.292892
v -1.68301 2.31699 1.05454
v -1.68301 2.8889 -0.707108
v -1.68301 3.22486 0.292892
v -0.683014 1.91937 -1.70711
v -1.00683 2.31699 -1.70711
v -0.683014 2.31699 -2.58812
v -0.683014 1.5125 -0.707108
v -0.683014 1.56519 0.292892
v -1.35241 2.31699 1.29289
v -0.683014 1.72185 1.29289
v -0.683014 2.13115 2.29289
v -0.856838 2.31699 2.29289
v -0.683014 2.31699 2.60945
v -0.683014 3.01137 -3.70711
v -0.901755 3.31699 -3.70711
v -0.683014 3.31699 -4.06827
v -0.683014 2.4084 -2.70711
v -1.01153 3.31699 -2.70711
v -0.786488 3.31699 -1.70711
v -0.940707 3.31699 -0.707108
v -1.02202 3.31699 0.292892
v -0.683014 3.27877 1.29289
v -0.683014 3.31699 0.966826
v -0.683014 3.31699 1.35722
v -0.979519 3.31699 2.29289
v -0.683014 2.87707 3.29289
v -0.932513 3.31699 3.29289
v -0.683014 3.31699 3.92013
v -0.683014 3.91931 -4.70711
v -0.926105 4.31699 -4.70711
v -0.683014 4.31699 -5.15462
v -0.920886 4.31699 -3.70711
v -0.683014 4.31699 -3.25922
v -0.683014 3.84881 -2.70711
v -0.683014 3.43029 -1.70711
v -0.683014 3.40502 -0.707108
v -0.683014 3.36788 0.292892
v -0.683014 3.70756 2.29289
v -0.683014 4.31699 3.28287
v -0.689166 4.31699 3.29289
v -0.683014 3.70024 4.29289
v -0.921963 4.31699 4.29289
v -0.683014 4.31699 5.05615
v -0.683014 5.29033 -4.70711
v -0.683014 4.69976 -3.70711
v -0.683014 4.32468 3.29289
v -0.683014 5.08517 4.29289
v 0.316986 2.08841 -2.70711
v -0.536125 2.31699 -2.70711
v 0.316986 2.31699 -3.10902
v 0.316986 1.64953 -1.70711
v 0.316986 1.55159 -0.707108
v 0.316986 1.68036 0.292892
v 0.316986 1.52831 1.29289
v 0.316986 1.89191 2.29289
v 0.316986 2.31699 2.99035
v 0.316986 3.31699 -4.3947
v 0.316986 2.7151 -3.70711
v -0.124369 3.31699 0.292892
v 0.316986 3.26132 0.292892
v 0.316986 3.31699 0.134798
v -0.59061 3.31699 1.29289
v 0.316986 3.31699 0.435445
v 0.316986 2.50171 3.29289
v 0.172088 3.31699 4.29289
v 0.316986 3.27651 4.29289
v 0.316986 3.31699 4.33911
v 0.316986 4.31699 -5.51645
v 0.316986 3.58543 -4.70711
v 0.316986 4.16551 -2.70711
v 0.316986 4.31699 -2.90452
v 0.316986 3.68242 -1.70711
v 0.316986 3.50477 -0.707108
v 0.316986 3.54843 1.29289
v 0.316986 3.95581 2.29289
v 0.316986 4.31699 2.85934
v -0.310769 4.31699 5.29289
v 0.316986 4.12298 5.29289
v 0.316986 4.31699 5.4612
v 0.316986 5.30483 -4.70711
v 0.316986 5.02723 -3.70711
v 0.316986 4.65972 3.29289
v -0.322138 5.31699 4.29289
v 0.316986 5.31699 4.06747
v 0.316986 4.55555 5.29289
v 0.316986 5.31699 4.53538
v 0.316986 5.48353 4.29289
v 0.569317 2.31699 -2.70711
v 1.10025 2.31699 -1.70711
v 1.31699 2.31699 -1.41255
v 1.31699 1.70586 -0.707108
v 1.31699 1.43963 0.292892
v 1.18685 2.31699 1.29289
v 1.31699 2.31699 1.17689
v 0.821165 2.31699 2.29289
v 0.839939 3.31699 -3.70711
v 0.962236 3.31699 -2.70711
v 0.743904 3.31699 -1.70711
v 1.1711 3.31699 -0.707108
v 1.31699 3.25245 -0.707108
v 0.618287 3.31699 0.292892
v 1.31699 3.31699 -0.425368
v 1.31699 3.31699 0.493082
v 0.710642 3.31699 1.29289
v 0.905575 3.31699 2.29289
v 0.947705 3.31699 3.29289
v 0.364803 3.31699 4.29289
v 0.882445 4.31699 -4.70711
v 0.875547 4.31699 -3.70711
v 1.31699 3.40494 0.292892
v 0.666414 4.31699 3.29289
v 0.939829 4.31699 4.29289
v 0.530529 4.31699 5.29289
v 0.534573 5.31699 4.29289
v 2.31698 1.31253 -0.707108
v 2.30727 1.31699 -0.707108
v 2.31698 1.31699 -0.710436
v 2.31698 0.982766 0.292892
v 1.60399 1.31699 0.292892
v 2.31698 1.31699 0.688951
v 2.31698 2.31699 -1.02337
v 2.31698 2.31699 0.986278
v 2.31698 2.80835 -0.707108
v 1.55868 3.31699 0.292892
v 2.31698 3.06137 0.292892
v 3.31698 1.31699 -1.01492
v 3.31698 0.700566 -0.707108
v 3.31698 0.319289 0.292892
v 3.31698 1.31699 0.971432
v 3.31698 2.1864 -0.707108
v 3.18344 2.31699 -0.707108
v 3.31698 2.31699 -0.538732
v 3.31698 2.31699 0.58837
v 3.31698 2.56491 0.292892
v 4.31698 -0.170156 -0.707108
v 3.71647 0.316987 -0.707108
v 4.31698 0.316987 -0.994604
v 4.31698 -0.52887 0.292892
v 3.31931 0.316987 0.292892
v 4.31698 0.316987 0.934742
v 4.31698 1.31699 -0.758318
v 4.31698 1.31699 0.772062
v 4.31698 1.40371 -0.707108
v 3.69887 2.31699 0.292892
v 4.31698 1.8477 0.292892
v 5.31698 0.316987 -0.718237
v 5.31698 0.30284 -0.707108
v 5.31698 0.302841 0.292892
v 5.31698 0.316987 0.319362
v 5.31698 0.338831 -0.707108
v 4.41253 1.31699 -0.707108
v 4.95336 1.31699 0.292892
v 5.31698 0.356824 0.292892
v 5.32905 0.316987 -0.707108
v 5.33063 0.316987 0.292892
v 1.32509 9.32896 6.98514
v 0.72515 9.37725 7.12552
v 0.284971 9.18184 7.51285
v 0.172685 8.81735 7.99917
v 0.431182 8.42302 8.39873
v 0.961725 8.14946 8.55891
v 1.56166 8.10117 8.41853
v 2.00184 8.29659 8.0312
v 2.11413 8.66108 7.54488
v 1.85563 9.05541 7.14532
v 2.335 13.1233 10.6019
v 1.73485 13.1228 10.7495
v 1.30113 12.8305 11.0787
v 1.19952 12.358 11.4639
v 1.46883 11.8858 11.7579
v 2.00618 11.5942 11.8484
v 2.60633 11.5946 11.7008
v 3.04005 11.8869 11.3715
v 3.14166 12.3594 10.9863
v 2.87236 12.8317 10.6924
v 2.64181 13.8425 13.5769
v 2.03366 13.7356 13.5506
v 1.60438 13.3338 13.3601
v 1.51796 12.7906 13.0783
v 1.80739 12.3135 12.8127
v 2.36213 12.0847 12.6648
v 2.97028 12.1916 12.6911
v 3.39955 12.5933 12.8816
v 3.48598 13.1365 13.1634
v 3.19655 13.6136 13.429
v 2.38547 11.3955 14.844
v 1.79859 11.44 14.6554
v 1.43059 11.4273 14.159
v 1.42202 11.3624 13.5445
v 1.77615 11.2699 13.0465
v 2.35772 11.1852 12.8552
v 2.94459 11.1406 13.0438
v 3.3126 11.1533 13.5402
v 3.32117 11.2183 14.1547
v 2.96704 11.3108 14.6527
v 1.99159 7.99628 14.7984
v 1.41135 8.07361 14.6001
v 1.06111 8.15167 14.0969
v 1.07467 8.20064 13.481
v 1.44683 8.20181 12.9876
v 2.03545 8.15475 12.8051
v 2.61569 8.07741 13.0034
v 2.96593 7.99936 13.5066
v 2.95237 7.95039 14.1225
v 2.58021 7.94921 14.6159
v 1.63751 3.93915 14.3606
v 1.05575 4.00056 14.1612
v 0.705483 4.08303 13.6588
v 0.7205 4.15507 13.0451
v 1.09506 4.18917 12.5547
v 1.6861 4.17229 12.3748
v 2.26786 4.11089 12.5742
v 2.61813 4.02841 13.0767
v 2.60311 3.95637 13.6903
v 2.22855 3.92227 14.1807
v 1.54196 -0.109235 13.9349
v 0.955977 -0.107296 13.7385
v 0.597079 -0.076793 13.2363
v 0.602355 -0.0293779 12.6201
v 0.969791 0.0168393 12.1253
v 1.55904 0.0442042 11.9409
v 2.14503 0.0422649 12.1373
v 2.50392 0.0117619 12.6395
v 2.49865 -0.0356531 13.2557
v 2.13121 -0.0818706 13.7505
v 1.93019 -3.34642 13.8969
v 1.35525 -3.50081 13.7308
v 0.993603 -3.63681 13.2485
v 0.983386 -3.70246 12.634
v 1.3285 -3.67269 12.1222
v 1.89713 -3.55887 11.9085
v 2.47207 -3.40448 12.0745
v 2.83372 -3.26848 12.5569
v 2.84394 -3.20283 13.1713
v 2.49882 -3.2326 13.6832
v 2.84855 -4.79483 14.3791
v 2.44645 -5.25574 14.4676
v 2.25018 -5.79777 14.2448
v 2.33472 -6.21389 13.7957
v 2.66778 -6.34515 13.292
v 3.12213 -6.14142 12.9259
v 3.52424 -5.68052 12.8373
v 3.7205 -5.13848 13.0601
v 3.63596 -4.72236 13.5092
v 3.30291 -4.5911 14.013
v 4.53171 -4.45904 15.5496
v 4.26801 -4.80087 15.9918
v 4.28375 -5.34954 16.2759
v 4.57292 -5.89547 16.2932
v 5.02507 -6.23015 16.0373
v 5.46749 -6.22573 15.6057
v 5.73119 -5.8839 15.1635
v 5.71545 -5.33524 14.8794
v 5.42628 -4.7893 14.8621
v 4.97413 -4.45463 15.1181
v 7.7263 -1.56028 18.6464
v 7.39108 -1.74155 19.133
v 7.36121 -2.15099 19.595
v 7.6481 -2.6322 19.8559
v 8.14216 -3.00138 19.8162
v 8.65468 -3.1175 19.4909
v 8.98989 -2.93623 19.0044
v 9.01976 -2.52679 18.5424
v 8.73288 -2.04558 18.2814
v 8.23882 -1.6764 18.3212
vn 0.505461 0.354235 -0.786782
vn 0.0634737 -0.547901 -0.834132
vn -0.174735 -0.979177 -0.103347
vn -0.0613189 -0.695778 0.715635
vn 0.3658 0.186518 0.911812
vn 0.986593 0.12871 0.100343
vn 0.493564 0.665481 -0.559937
vn -0.0392599 -0.0437245 -0.998272
vn -0.541134 -0.711925 -0.447589
vn -0.495829 -0.661362 0.562809
vn 0.0578312 0.06439 0.996248
vn 0.54478 0.722492 0.425699
vn 0.343772 0.856079 -0.385941
vn -0.0180451 0.176678 -0.984103
vn -0.373583 -0.672872 -0.638497
vn -0.38187 -0.850268 0.362243
vn 0.0182493 -0.134301 0.990773
vn 0.379943 0.715034 0.58683
vn 0.0856364 0.981088 -0.173587
vn -0.258478 0.413397 -0.873093
vn -0.365046 -0.530026 -0.765385
vn -0.178356 -0.981241 0.0731785
vn 0.142296 -0.397854 0.906347
vn 0.314341 0.625776 0.713859
vn -0.0900244 0.994994 -0.0433998
vn -0.634288 0.468595 -0.614896
vn -0.62453 -0.484467 -0.61258
vn -0.0562898 -0.997106 -0.0511009
vn 0.567231 -0.566092 0.598154
vn 0.521861 0.590427 0.615676
vn -0.0951827 0.975117 -0.200219
vn -0.845693 0.407233 -0.344912
vn -0.819692 -0.53258 -0.210865
vn -0.0416933 -0.99123 0.1254
vn 0.80298 -0.502219 0.320934
vn 0.820272 0.561945 0.106638
vn -0.0568103 0.897403 -0.437539
vn -0.890221 0.381076 -0.249575
vn -0.850725 -0.504525 0.147382
vn -0.00602434 -0.917022 0.398792
vn 0.856179 -0.44444 0.263498
vn 0.857316 0.484659 -0.173536
vn -0.044536 0.794622 -0.605469
vn -0.890895 0.361513 -0.274982
vn -0.844279 -0.430083 0.319721
vn 0.0256187 -0.802715 0.595812
vn 0.874595 -0.38934 0.288959
vn 0.852661 0.415771 -0.316391
vn 0.137294 0.990482 0.00982992
vn -0.744023 0.58778 -0.317718
vn -0.872154 0.0497535 0.486696
vn -0.167969 -0.313203 0.934714
vn 0.702652 -0.184572 0.687178
vn 0.934368 0.341502 -0.101652
vn 0.509471 0.350835 -0.785719
vn 0.0682324 -0.551571 -0.831332
vn -0.17436 -0.979305 -0.10276
vn -0.0661369 -0.693081 0.71782
vn 0.361198 0.189931 0.912941
vn 0.986386 0.129012 0.10197
vn 0.517877 0.654455 -0.550902
vn -0.00913531 -0.0589063 -0.998222
vn -0.533446 -0.719012 -0.445485
vn -0.509115 -0.647427 0.567133
vn 0.0297371 0.084561 0.995974
vn 0.53331 0.726593 0.433179
vn 0.439657 0.831585 -0.339364
vn 0.170883 0.128246 -0.976909
vn -0.286793 -0.719308 -0.632729
vn -0.433273 -0.813264 0.388429
vn -0.153083 -0.0593048 0.986432
vn 0.267824 0.741555 0.615115
vn 0.222804 0.97338 -0.0537554
vn 0.339509 0.413441 -0.844867
vn 0.0940418 -0.631594 -0.769575
vn -0.261854 -0.948193 0.179894
vn -0.407191 -0.278727 0.869774
vn -0.164899 0.63846 0.751782
vn -0.075918 0.984526 0.157942
vn 0.526581 0.642244 -0.556988
vn 0.61527 -0.521504 -0.591166
vn -0.0659595 -0.997776 -0.00963271
vn -0.637097 -0.525505 0.563873
vn -0.6145 0.414433 0.671293
vn 0.699816 0.710929 -0.0695528
vn 0.88327 -0.32606 -0.336925
vn 0.137989 -0.956256 -0.257941
vn -0.696767 -0.706704 0.122825
vn -0.897194 0.183731 0.401605
vn -0.273329 0.917003 0.290512
vn 0.243157 -0.834607 -0.494273
vn -0.679492 -0.682216 -0.269948
vn -0.977142 0.14093 0.159163
vn -0.307276 0.866911 0.392488
vn 0.707401 0.683348 0.180608
vn 0.940052 -0.194916 -0.27984
vn 0.030491 -0.80656 -0.590365
vn -0.838549 -0.466651 -0.281197
vn -0.889038 0.323053 0.324421
vn -0.0316825 0.773419 0.633103
vn 0.860957 0.404091 0.308973
vn 0.871305 -0.382949 -0.306883
vn 0.155458 -0.116541 -0.980944
vn -0.742298 -0.405384 -0.533534
vn -0.864643 0.492792 -0.0977175
vn -0.170108 0.970411 0.171367
vn 0.668411 0.737481 0.0966857
vn 0.939029 -0.139221 -0.314393
vn -0.806672 0.336453 -0.485881
vn -0.670361 0.568262 0.477174
vn -0.438142 -0.409996 0.799959
vn 0.21103 -0.863856 0.457405
vn 0.467512 -0.741684 -0.480975
vn -0.407804 -0.420193 -0.810638
vn -0.451392 0.644758 -0.616873
vn -0.576426 0.737138 0.352647
vn -0.134174 0.12099 0.983544
vn 0.455031 -0.618828 0.640311
vn 0.580466 -0.726476 -0.36782
vn 0.116065 -0.0777781 -0.990192
vn -0.335624 0.828643 -0.448004
vn -0.442491 0.744468 0.499969
vn -0.100206 -0.0356137 0.994329
vn 0.35281 -0.813139 0.462957
vn 0.427106 -0.695669 -0.577603
vn 0.087605 0.148098 -0.985085
vn -0.152015 0.949863 -0.273226
vn -0.38835 0.703261 0.59549
vn -0.255024 -0.291036 0.922096
vn 0.145013 -0.982429 0.11749
vn 0.423077 -0.528408 -0.736065
vn 0.267003 0.387047 -0.882555
vn 0.0272613 0.985072 -0.169972
vn -0.575325 0.610014 0.544871
vn -0.607688 -0.584888 0.537235
vn 0.129651 -0.990575 -0.0441836
vn 0.661399 -0.468414 -0.585781
vn 0.575641 0.453037 -0.680731
vn 0.011499 0.97672 -0.214208
vn -0.87597 0.451967 0.168531
vn -0.725802 -0.58576 0.360689
vn 0.126474 -0.975465 0.1802
vn 0.833462 -0.503655 -0.227317
vn 0.799146 0.422887 -0.427239
vn -0.0518061 0.899376 -0.434096
vn -0.909427 0.403745 -0.099657
vn -0.799682 -0.49257 0.34334
vn 0.0776187 -0.901569 0.425615
vn 0.878651 -0.467788 0.0956406
vn 0.84772 0.423827 -0.318971
vn -0.0484376 0.794064 -0.605901
vn -0.896516 0.367773 -0.246986
vn -0.832371 -0.422794 0.358334
vn 0.0464565 -0.796959 0.602244
vn 0.880623 -0.395948 0.260248
vn 0.849961 0.401921 -0.340625
vn 0.135956 0.990686 0.00759899
vn -0.74475 0.589485 -0.312816
vn -0.86849 0.0533572 0.492828
vn -0.163815 -0.311585 0.935991
vn 0.706696 -0.186621 0.682461
vn 0.93418 0.340273 -0.107338
vn -0.808877 0.334137 -0.483808
vn -0.667657 0.570408 0.478401
vn -0.43401 -0.405514 0.804484
vn 0.213574 -0.86261 0.458574
vn 0.465249 -0.743397 -0.480524
vn -0.412648 -0.42404 -0.806171
vn -0.464884 0.640224 -0.611552
vn -0.553489 0.748303 0.36564
vn -0.100475 0.133532 0.985938
vn 0.465717 -0.609396 0.641672
vn 0.570849 -0.738753 -0.358296
vn 0.0916554 -0.102073 -0.990546
vn -0.377089 0.831908 -0.407102
vn -0.28522 0.776655 0.561654
vn 0.079811 0.00068078 0.99681
vn 0.409206 -0.768536 0.491836
vn 0.350575 -0.768635 -0.535068
vn -0.0801008 0.06806 -0.99446
vn -0.163496 0.979615 -0.116717
vn 0.158726 0.66371 0.730955
vn 0.316956 -0.24421 0.916461
vn 0.224705 -0.930089 0.29059
vn -0.0530293 -0.731038 -0.680273
vn -0.320119 0.338699 -0.884764
vn 0.143021 0.985451 0.0918245
vn 0.654981 0.413608 0.632398
vn 0.581874 -0.525865 0.620394
vn -0.00526856 -0.998157 0.0604599
vn -0.619289 -0.530799 -0.578562
vn -0.529655 0.653488 -0.540757
vn -0.608978 0.793171 0.00503291
vn 0.366582 0.893393 0.259743
vn 0.932599 0.151012 0.327804
vn 0.664386 -0.734899 0.136069
vn -0.216705 -0.957858 -0.188542
vn -0.9267 -0.233953 -0.294097
vn -0.327296 -0.865725 -0.378679
vn -0.98078 -0.163594 -0.106338
vn -0.636382 0.689556 0.345733
vn 0.374891 0.800483 0.467637
vn 0.983249 0.0781575 0.164658
vn 0.632173 -0.738306 -0.235076
vn -0.11248 -0.790628 -0.601877
vn -0.914224 -0.313922 -0.256217
vn -0.802448 0.485651 0.346729
vn 0.131244 0.796326 0.590457
vn 0.926104 0.303608 0.22395
vn 0.795792 -0.483401 -0.364743
vn 0.137452 -0.122909 -0.982853
vn -0.756993 -0.384866 -0.528053
vn -0.852786 0.514337 -0.0906311
vn -0.14808 0.974031 0.17128
vn 0.685928 0.722338 0.0879293
vn 0.930856 -0.158728 -0.329109
vn -0.0853432 -0.90824 -0.409653
vn -0.889342 0.166543 -0.425834
vn 0 0 -1
vn -0.115226 -0.940575 0.31944
vn -0.943853 -0.264731 0.197635
vn -0.271574 -0.159802 0.949058
vn 0.185867 0.470653 -0.862519
vn -0.694529 0.516223 -0.501142
vn -0.873769 0.464443 0.144291
vn -0.432828 0.460702 0.774863
vn -0.581198 0.79722 -0.163243
vn 0.532647 -0.344207 -0.773181
vn 0.46192 -0.554845 -0.691937
vn 0.466477 -0.872885 -0.143078
vn 0.301305 -0.516234 0.801697
vn -0.589815 0.196781 -0.783196
vn -0.0193834 -0.0264805 -0.999461
vn 0.259667 -0.629996 -0.731901
vn -0.121708 0.152654 0.980757
vn -0.492964 0.704767 -0.510186
vn -0.562804 0.808503 0.171974
vn 0.595204 -0.758207 0.266186
vn 0.0307674 -0.1964 -0.980041
vn 0.421924 -0.66207 -0.61939
vn 0.559245 -0.815019 -0.151619
vn 0.258409 -0.413538 0.873047
vn -0.462104 0.806184 -0.369496
vn -0.100422 0.0844698 -0.991353
vn -0.497856 0.770425 0.398226
vn -0.21526 0.425346 0.879059
vn -0.32574 0.813675 -0.481484
vn -0.41807 0.906917 0.0521459
vn 0.402261 -0.8496 -0.341124
vn 0.480443 -0.804872 0.348361
vn -0.0365633 -0.901618 -0.430985
vn -0.378965 -0.0786584 -0.922062
vn 0.0055889 -0.98293 0.183895
vn -0.0953133 -0.0311151 0.994961
vn -0.425752 0.730718 -0.533655
vn -0.41125 0.878387 0.243535
vn -0.308786 -0.855547 -0.41556
vn -0.919872 0.119357 -0.373617
vn -0.442409 -0.81614 -0.371738
vn -0.0269917 -0.992987 -0.115105
vn 0.0415532 -0.99912 -0.00565594
vn -0.850939 -0.019207 0.524913
vn -0.290915 -0.884192 0.365475
vn -0.276425 -0.859234 0.430473
vn -0.87526 -0.371966 0.309129
vn -0.471908 -0.699545 0.5366
vn -0.596437 -0.686039 -0.416668
vn -0.957118 -0.226975 -0.180018
vn -0.299348 -0.712394 -0.634733
vn -0.710858 -0.57578 -0.403929
vn -0.999868 0.0162154 0.000505946
vn -0.930748 0.364046 0.0343261
vn -0.537358 0.795534 -0.279948
vn -0.145914 0.988601 0.0371084
vn -0.469914 0.787827 0.398133
vn 0.04135 0.994614 0.0950474
vn -0.767615 0.584196 -0.263596
vn -0.967721 0.252017 -0.00197356
vn -0.368534 -0.743937 0.557441
vn -0.989212 -0.0883345 0.116865
vn -0.630725 -0.588514 0.505803
vn -0.473353 -0.646196 -0.598638
vn -0.990402 0.0643358 -0.122327
vn -0.473496 -0.277726 -0.835865
vn -0.967947 0.224973 0.111653
vn -0.323875 0.718825 0.615139
vn -0.464782 0.769745 0.437574
vn -0.352075 0.913607 0.203383
vn -0.183459 0.982761 0.0228987
vn -0.0676695 0.994678 0.0777002
vn -0.337391 0.839875 -0.425179
vn -0.394967 0.781774 -0.482525
vn -0.958313 0.254859 -0.129163
vn -0.517916 -0.652476 0.553207
vn -0.996683 0.0406927 0.0704738
vn -0.85325 0 0.521502
vn -0.486428 0.83004 -0.272803
vn -0.645587 0.656455 0.390236
vn -0.259389 0.765386 -0.588984
vn -0.607628 0.791667 -0.0636535
vn -0.106913 -0.903144 -0.415814
vn -0.275711 -0.808983 -0.519162
vn 0.296443 -0.802019 -0.518543
vn 0.224331 -0.917607 -0.328135
vn -0.0205291 -0.994638 -0.10136
vn -0.0423662 -0.999101 0.00122723
vn 0.189413 -0.950689 0.245586
vn 0.186094 -0.903947 0.385032
vn -0.0462661 -0.83212 0.552662
vn 0.350302 -0.699474 -0.622917
vn -0.0183743 -0.802611 -0.59622
vn 0.0944201 0.980489 0.172412
vn 0.293938 0.92728 0.231844
vn 0.202396 0.947168 0.248815
vn -0.247838 0.912127 -0.326497
vn 0 0.961168 -0.275962
vn 0.348709 -0.745613 0.567858
vn -0.27404 -0.747242 0.605419
vn 0.187716 -0.781877 0.594501
vn 0 -0.763268 0.646081
vn 0.202366 0.118697 -0.97209
vn 0.0275665 -0.742064 -0.669762
vn 0.242088 0.853795 0.460898
vn 0.389464 0.695278 0.604075
vn 0.0200194 0.964719 0.262518
vn -0.00453095 0.990529 0.137226
vn 0.0918742 0.942237 -0.322101
vn 0.299144 0.841768 -0.449377
vn -0.0854016 0.828892 -0.552851
vn -0.410638 -0.288647 0.864904
vn 0 -0.748383 0.663267
vn 6.82442e-09 0 1
vn 0.569492 0.781416 -0.255083
vn 0.108526 0.856082 0.505318
vn -0.045488 0.776701 -0.628224
vn -0.354318 0.794277 0.49354
vn -0.140386 0.737349 -0.660763
vn -0.18216 0.682135 0.708173
vn 0.160057 0.718065 0.677321
vn -6.19545e-09 1 0
vn 0.782897 -0.52749 -0.329887
vn 0.895396 -0.224111 -0.384761
vn 0.311186 -0.053236 -0.948857
vn 0.0692537 -0.918966 -0.388208
vn -0.0288864 -0.961148 0.274516
vn 0.979302 -0.0835951 0.184336
vn 0.1358 -0.112183 0.984364
vn 0.936998 -0.267441 0.224742
vn 0.884789 -0.372914 -0.279433
vn 0.986169 0.158581 0.048196
vn 0.850678 0.525649 0.00630499
vn 0.596172 0.786514 -0.161168
vn 0.296678 0.847678 -0.439801
vn -0.159308 0.985805 -0.0530114
vn 5.22153e-09 0.988571 -0.150754
vn 0.0830188 0.641286 0.762798
vn 0.897917 0.427401 -0.105229
vn 0.917262 0.342427 -0.203404
vn 0.936529 -0.166631 0.30846
vn 0.906756 -0.326278 0.267087
vn 0.933839 -0.0432579 -0.35507
vn 0.907087 0.380894 0.179201
vn -2.87544e-09 1 0
vn 0.938139 0.298165 -0.176046
vn 0.994141 -0.0843873 0.0675448
vn 0.877171 -0.00161234 0.480176
vn 0.86249 0.505255 -0.0287713
vn -0.488333 -0.823696 -0.288194
vn -0.328788 -0.837286 -0.436864
vn -0.0387326 -0.338514 -0.940164
vn -0.460242 -0.843707 0.27629
vn -0.393316 -0.913939 -0.100091
vn -0.0862044 -0.382693 0.919845
vn 0.214974 0.198345 -0.956266
vn 0.292748 0.334936 0.895609
vn 0.407281 0.821182 -0.399727
vn 0.339574 0.939222 -0.0505065
vn 0.399782 0.895704 0.194652
vn -0.0115824 -0.0280691 -0.999539
vn -0.492086 -0.691945 -0.528265
vn -0.550256 -0.779874 0.298353
vn -0.194662 -0.149929 0.969344
vn 0.516085 0.644373 -0.564305
vn 0.34295 0.440773 -0.829521
vn 0.511479 0.812532 -0.279607
vn 0.226287 0.3458 0.910613
vn 0.452683 0.881657 0.13326
vn -0.00736105 -0.923151 -0.384368
vn -0.544883 -0.613735 -0.571342
vn 0.0718088 -0.0873462 -0.993587
vn -0.00420812 -0.958184 0.28612
vn -0.650059 -0.758795 0.0406708
vn 0.029973 -0.32939 0.943718
vn 0.258356 0.268084 -0.928107
vn 0.40768 0.320369 0.855079
vn 0.587903 0.727645 -0.353416
vn 0.60757 0.790261 -0.0796618
vn 0.621708 0.783108 0.0148746
vn 0.282332 0.232771 -0.930648
vn 0.408002 -0.852715 -0.326209
vn 0.54572 -0.826415 -0.138664
vn 0.523362 -0.208314 0.826255
vn 0.817369 0.529971 -0.225917
vn 0.664621 0.624045 -0.41091
vn 0.796715 0.60401 0.0204041
vn 0.866835 0.332962 0.371125
vn 0.965368 -0.260723 -0.00938347
vn 0.988011 0.154283 0.00555267
vn -nan -nan -nan
vn -0.761572 0.422769 -0.491197
vn 0 0.262925 -0.964816
vn -nan -nan -nan
vn -nan -nan -nan
vn -0.162833 0.0363104 0.985985
vn 0.185867 0.470653 -0.862519
vn -0.694529 0.516223 -0.501142
vn -0.835897 0.548886 1.37996e-08
vn -0.432828 0.460702 0.774863
vn -0.581198 0.79722 -0.163243
vn 0.498647 0.13124 -0.856812
vn 0.46192 -0.554845 -0.691937
vn 0.555983 -0.819068 -0.141459
vn 0.320197 -0.447885 0.834789
vn -0.589815 0.196781 -0.783196
vn -0.0193834 -0.0264805 -0.999461
vn 0.259667 -0.629995 -0.731901
vn -0.121708 0.152654 0.980757
vn -0.492964 0.704767 -0.510186
vn -0.562804 0.808503 0.171974
vn 0.595204 -0.758207 0.266186
vn 0.0307674 -0.1964 -0.980041
vn 0.421924 -0.66207 -0.61939
vn 0.559245 -0.815019 -0.151619
vn 0.258409 -0.413538 0.873047
vn -0.462104 0.806184 -0.369496
vn -0.100422 0.0844698 -0.991353
vn -0.497856 0.770425 0.398226
vn -0.215259 0.425346 0.879059
vn -0.32574 0.813675 -0.481484
vn -0.418069 0.906917 0.0521458
vn 0.402261 -0.8496 -0.341124
vn 0.480443 -0.804872 0.348361
vn -0.0365634 -0.901618 -0.430985
vn -0.378965 -0.0786584 -0.922062
vn 0.00558877 -0.98293 0.183896
vn -0.0953131 -0.0311151 0.994961
vn -0.425752 0.730718 -0.533654
vn -0.41125 0.878387 0.243535
vn -0.308786 -0.855547 -0.41556
vn -0.919872 0.119357 -0.373617
vn -0.442409 -0.81614 -0.371738
vn -0.0269916 -0.992987 -0.115105
vn 0.0415532 -0.99912 -0.00565587
vn -0.850939 -0.019207 0.524913
vn -0.290915 -0.884192 0.365475
vn -0.276425 -0.859233 0.430473
vn -0.87526 -0.371966 0.309129
vn -0.471908 -0.699545 0.5366
vn -0.596437 -0.686039 -0.416668
vn -0.957118 -0.226975 -0.180018
vn -0.299347 -0.712394 -0.634733
vn -0.710858 -0.57578 -0.403929
vn -0.999868 0.0162154 0.000505898
vn -0.930748 0.364046 0.0343261
vn -0.537359 0.795534 -0.279948
vn -0.145914 0.988601 0.0371085
vn -0.469914 0.787827 0.398133
vn 0.0413497 0.994614 0.0950476
vn -0.767615 0.584196 -0.263596
vn -0.967721 0.252017 -0.00197354
vn -0.368534 -0.743937 0.557441
vn -0.989212 -0.0883346 0.116865
vn -0.630725 -0.588514 0.505803
vn -0.473353 -0.646196 -0.598638
vn -0.984469 -0.0669257 -0.162299
vn -0.402666 -0.684224 -0.608028
vn -0.967947 0.224973 0.111653
vn -0.323875 0.718825 0.615139
vn -0.464782 0.769745 0.437574
vn -0.352075 0.913607 0.203383
vn -0.183459 0.982761 0.0228985
vn -0.0676693 0.994678 0.0777003
vn -0.337391 0.839875 -0.425179
vn -0.394967 0.781774 -0.482525
vn -0.941993 0.308994 -0.131042
vn -0.477694 -0.523604 0.705441
vn -0.979504 0.0295951 0.199237
vn -nan -nan -nan
vn -nan -nan -nan
vn -0.604257 0.683074 0.410224
vn -0.401839 0.629543 -0.664982
vn -nan -nan -nan
vn -0.106913 -0.903144 -0.415814
vn -0.275711 -0.808983 -0.519162
vn 0.296443 -0.802019 -0.518543
vn 0.224331 -0.917607 -0.328135
vn -0.0205291 -0.994638 -0.10136
vn -0.0423661 -0.999101 0.00122714
vn 0.189413 -0.950689 0.245586
vn 0.186094 -0.903947 0.385032
vn -0.0462661 -0.83212 0.552662
vn 0.350302 -0.699474 -0.622917
vn -0.0183744 -0.802611 -0.59622
vn 0.0944203 0.980489 0.172412
vn 0.293938 0.92728 0.231844
vn 0.202395 0.947168 0.248814
vn -0.247838 0.912127 -0.326496
vn 0 0.961169 -0.275962
vn 0.348709 -0.745613 0.567858
vn -0.279892 -0.620758 0.732339
vn 0.187716 -0.781877 0.594501
vn 0 -0.763269 0.646081
vn -nan -nan -nan
vn -0.103999 -0.738712 -0.66595
vn 0.242088 0.853796 0.460898
vn 0.389464 0.695278 0.604074
vn 0.0200193 0.964719 0.262518
vn -0.00453068 0.990529 0.137226
vn 0.0918741 0.942237 -0.322101
vn 0.299144 0.841768 -0.449377
vn -0.0854019 0.828892 -0.552851
vn -nan -nan -nan
vn 0.539714 -0.622216 0.56706
vn -nan -nan -nan
vn -nan -nan -nan
vn 0.0756587 0.749697 0.657442
vn -0.0386066 0.632239 -0.773811
vn -nan -nan -nan
vn -nan -nan -nan
vn -nan -nan -nan
vn -nan -nan -nan
vn -nan -nan -nan
vn 0.782897 -0.52749 -0.329887
vn 0.895396 -0.224111 -0.384761
vn 0.311186 -0.053236 -0.948857
vn 0.0692536 -0.918966 -0.388208
vn -0.0288865 -0.961148 0.274516
vn 0.979302 -0.0835951 0.184336
vn 0.1358 -0.112183 0.984364
vn 0.936998 -0.267441 0.224742
vn 0.884789 -0.372914 -0.279433
vn 0.986169 0.158581 0.0481959
vn 0.850678 0.525649 0.00630501
vn 0.596171 0.786514 -0.161168
vn 0.296678 0.847678 -0.439801
vn -0.159307 0.985805 -0.0530114
vn -5.22153e-09 0.988571 -0.150754
vn 0.083019 0.641286 0.762798
vn 0.897917 0.427401 -0.105229
vn 0.917262 0.342427 -0.203404
vn 0.936529 -0.166631 0.30846
vn 0.93333 -0.33737 0.122788
vn 0.883662 -0.352537 -0.307991
vn 0.93216 0.277832 0.232134
vn 1.43772e-09 1 0
vn 0.928482 0.125372 -0.349575
vn -nan -nan -nan
vn -nan -nan -nan
vn -nan -nan -nan
vn -0.488333 -0.823696 -0.288194
vn -0.328788 -0.837286 -0.436864
vn -0.0387326 -0.338514 -0.940164
vn -0.460242 -0.843707 0.27629
vn -0.393316 -0.913939 -0.100091
vn -0.0862044 -0.382693 0.919845
vn 0.214974 0.198345 -0.956266
vn 0.292748 0.334936 0.895609
vn 0.407281 0.821182 -0.399727
vn 0.339573 0.939223 -0.0505065
vn 0.399782 0.895704 0.194652
vn -0.0115824 -0.0280691 -0.999539
vn -0.492086 -0.691945 -0.528265
vn -0.550256 -0.779874 0.298353
vn -0.194662 -0.149929 0.969344
vn 0.516085 0.644373 -0.564305
vn 0.34295 0.440773 -0.829521
vn 0.511479 0.812533 -0.279607
vn 0.226287 0.3458 0.910613
vn 0.452683 0.881658 0.13326
vn -0.322962 -0.697361 -0.63983
vn -0.544883 -0.613735 -0.571342
vn 0.0718088 -0.0873462 -0.993586
vn -nan -nan -nan
vn -0.635934 -0.729974 -0.250452
vn -0.210147 -0.244842 0.946515
vn 0.258356 0.268084 -0.928107
vn 0.366847 0.369124 0.853915
vn 0.587903 0.727645 -0.353416
vn 0.60757 0.790261 -0.0796619
vn 0.621708 0.783108 0.0148745
vn 0.282332 0.232771 -0.930648
vn 0.233311 -0.497702 -0.835379
vn -nan -nan -nan
vn -nan -nan -nan
vn 0.817369 0.529971 -0.225917
vn 0.664621 0.624045 -0.41091
vn 0.796715 0.604011 0.0204041
vn 0.872394 0.329522 0.361032
vn 0.878896 0.476654 -0.0185232
vn 0.923003 0.384769 -0.00419315
vn 0.172395 0.623949 -0.762212
vn -0.40989 0.649246 -0.640679
vn -0.888678 0.408233 -0.208802
vn -0.982712 0.107317 0.150862
vn -0.687885 -0.379705 0.618579
vn -0.165694 -0.641516 0.749001
vn 0.400902 -0.673522 0.621004
vn 0.860834 -0.452396 0.233028
vn 0.974257 -0.126478 -0.186619
vn 0.668744 0.388738 -0.63377
vn 0.211116 0.785428 -0.581835
vn -0.383542 0.783823 -0.488382
vn -0.842777 0.497319 -0.205914
vn -0.979499 0.0501596 0.195104
vn -0.737406 -0.382106 0.556981
vn -0.22686 -0.670607 0.706272
vn 0.374836 -0.730234 0.571189
vn 0.849345 -0.482842 0.213252
vn 0.981764 0.000688559 -0.190102
vn 0.728142 0.491799 -0.477433
vn 0.157046 0.916204 0.368656
vn -0.460923 0.843383 0.276142
vn -0.879263 0.464016 0.10764
vn -0.996673 -0.0584457 -0.0568144
vn -0.787037 -0.584793 -0.196444
vn -0.15884 -0.926524 -0.341063
vn 0.562194 -0.765572 -0.312789
vn 0.922997 -0.36892 -0.109431
vn 0.984138 0.123941 0.126929
vn 0.717812 0.622059 0.312711
vn 0.0116949 0.20249 0.979215
vn -0.561153 0.233403 0.794122
vn -0.937464 0.175094 0.300838
vn -0.938956 0.0805198 -0.334482
vn -0.545638 0.00865215 -0.837976
vn 0.0531302 -0.0468616 -0.997487
vn 0.616175 -0.11371 -0.779358
vn 0.953227 -0.139778 -0.267994
vn 0.937443 -0.0615992 0.342646
vn 0.576237 0.0837179 0.812984
vn -0.0285559 -0.0630089 0.997604
vn -0.606745 0.010141 0.794832
vn -0.954299 0.0795179 0.288081
vn -0.936433 0.119431 -0.329893
vn -0.558891 0.114738 -0.821265
vn 0.0326162 0.0665105 -0.997252
vn 0.610951 -0.00749023 -0.791633
vn 0.955623 -0.0786392 -0.283904
vn 0.935828 -0.118796 0.331834
vn 0.559973 -0.112482 0.82084
vn -0.0221393 -0.107629 0.993945
vn -0.604867 -0.0525089 0.794593
vn -0.956289 0.0225183 0.291554
vn -0.942337 0.0889477 -0.322629
vn -0.568757 0.121611 -0.813466
vn 0.0218256 0.107998 -0.993912
vn 0.604204 0.0530646 -0.79506
vn 0.955986 -0.0223042 -0.292563
vn 0.942608 -0.0891324 0.321784
vn 0.569021 -0.1217 0.813268
vn 0.00576936 -0.0686339 0.997625
vn -0.584771 -0.0772527 0.807512
vn -0.949745 -0.0582885 0.30755
vn -0.951115 -0.0178527 -0.308321
vn -0.591402 0.0301422 -0.805813
vn -0.00730844 0.067339 -0.997703
vn 0.580457 0.0778408 -0.810562
vn 0.947637 0.0565428 -0.314304
vn 0.953142 0.0127784 0.302254
vn 0.59378 -0.0349373 0.803869
vn 0.0567989 0.111952 0.992089
vn -0.532876 -0.0477364 0.844846
vn -0.903294 -0.21641 0.370441
vn -0.919349 -0.313897 -0.237202
vn -0.594236 -0.288693 -0.750693
vn -0.0500305 -0.148468 -0.987651
vn 0.519795 0.0413866 -0.853288
vn 0.900964 0.19009 -0.390039
vn 0.94344 0.244475 0.223949
vn 0.62384 0.212645 0.752068
vn -0.235284 0.604557 0.761021
vn -0.557826 0.0925786 0.824778
vn -0.67525 -0.443135 0.589635
vn -0.556365 -0.820821 0.129272
vn -0.227243 -0.891299 -0.392361
vn 0.193101 -0.621455 -0.75928
vn 0.542155 -0.132152 -0.829821
vn 0.697877 0.396621 -0.596372
vn 0.586989 0.798348 -0.13448
vn 0.213301 0.892182 0.398138
vn -0.493052 0.863591 -0.105406
vn -0.749499 0.555148 0.36064
vn -0.723282 0.0346727 0.689681
vn -0.439374 -0.510142 0.739396
vn -0.00741756 -0.870168 0.492699
vn 0.421591 -0.904863 0.059024
vn 0.698087 -0.598807 -0.392561
vn 0.710959 -0.0622817 -0.70047
vn 0.43145 0.496904 -0.752952
vn -0.0381613 0.848855 -0.527247
vn -0.395189 0.843707 -0.363296
vn -0.741333 0.662022 0.11024
vn -0.806396 0.22665 0.546219
vn -0.559186 -0.299385 0.773097
vn -0.0975482 -0.707204 0.700248
vn 0.396536 -0.84281 0.36391
vn 0.742043 -0.661779 -0.106864
vn 0.809913 -0.227377 -0.540686
vn 0.565109 0.298722 -0.769036
vn 0.102099 0.707567 -0.699232
f 8//8 7//7 1//1
f 1//1 2//2 8//8
f 9//9 8//8 2//2
f 2//2 3//3 9//9
f 10//10 9//9 3//3
f 3//3 4//4 10//10
f 11//11 10//10 4//4
f 4//4 5//5 11//11
f 12//12 11//11 5//5
f 5//5 6//6 12//12
f 7//7 12//12 6//6
f 6//6 1//1 7//7
f 14//14 13//13 7//7
f 7//7 8//8 14//14
f 15//15 14//14 8//8
f 8//8 9//9 15//15
f 16//16 15//15 9//9
f 9//9 10//10 16//16
f 17//17 16//16 10//10
f 10//10 11//11 17//17
f 18//18 17//17 11//11
f 11//11 12//12 18//18
f 13//13 18//18 12//12
f 12//12 7//7 13//13
f 20//20 19//19 13//13
f 13//13 14//14 20//20
f 21//21 20//20 14//14
f 14//14 15//15 21//21
f 22//22 21//21 15//15
f 15//15 16//16 22//22
f 23//23 22//22 16//16
f 16//16 17//17 23//23
f 24//24 23//23 17//17
f 17//17 18//18 24//24
f 19//19 24//24 18//18
f 18//18 13//13 19//19
f 26//26 25//25 19//19
f 19//19 20//20 26//26
f 27//27 26//26 20//20
f 20//20 21//21 27//27
f 28//28 27//27 21//21
f 21//21 22//22 28//28
f 29//29 28//28 22//22
f 22//22 23//23 29//29
f 30//30 29//29 23//23
f 23//23 24//24 30//30
f 25//25 30//30 24//24
f 24//24 19//19 25//25
f 32//32 31//31 25//25
f 25//25 26//26 32//32
f 33//33 32//32 26//26
f 26//26 27//27 33//33
f 34//34 33//33 27//27
f 27//27 28//28 34//34
f 35//35 34//34 28//28
f 28//28 29//29 35//35
f 36//36 35//35 29//29
f 29//29 30//30 36//36
f 31//31 36//36 30//30
f 30//30 25//25 31//31
f 38//38 37//37 31//31
f 31//31 32//32 38//38
f 39//39 38//38 32//32
f 32//32 33//33 39//39
f 40//40 39//39 33//33
f 33//33 34//34 40//40
f 41//41 40//40 34//34
f 34//34 35//35 41//41
f 42//42 41//41 35//35
f 35//35 36//36 42//42
f 37//37 42//42 36//36
f 36//36 31//31 37//37
f 44//44 43//43 37//37
f 37//37 38//38 44//44
f 45//45 44//44 38//38
f 38//38 39//39 45//45
f 46//46 45//45 39//39
f 39//39 40//40 46//46
f 47//47 46//46 40//40
f 40//40 41//41 47//47
f 48//48 47//47 41//41
f 41//41 42//42 48//48
f 43//43 48//48 42//42
f 42//42 37//37 43//43
f 50//50 49//49 43//43
f 43//43 44//44 50//50
f 51//51 50//50 44//44
f 44//44 45//45 51//51
f 52//52 51//51 45//45
f 45//45 46//46 52//52
f 53//53 52//52 46//46
f 46//46 47//47 53//53
f 54//54 53//53 47//47
f 47//47 48//48 54//54
f 49//49 54//54 48//48
f 48//48 43//43 49//49
f 6//6 5//5 4//4
f 6//6 4//4 3//3
f 6//6 3//3 2//2
f 6//6 2//2 1//1
f 49//49 50//50 51//51
f 49//49 51//51 52//52
f 49//49 52//52 53//53
f 49//49 53//53 54//54
f 62//62 61//61 55//55
f 55//55 56//56 62//62
f 63//63 62//62 56//56
f 56//56 57//57 63//63
f 64//64 63//63 57//57
f 57//57 58//58 64//64
f 65//65 64//64 58//58
f 58//58 59//59 65//65
f 66//66 65//65 59//59
f 59//59 60//60 66//66
f 61//61 66//66 60//60
f 60//60 55//55 61//61
f 68//68 67//67 61//61
f 61//61 62//62 68//68
f 69//69 68//68 62//62
f 62//62 63//63 69//69
f 70//70 69//69 63//63
f 63//63 64//64 70//70
f 71//71 70//70 64//64
f 64//64 65//65 71//71
f 72//72 71//71 65//65
f 65//65 66//66 72//72
f 67//67 72//72 66//66
f 66//66 61//61 67//67
f 74//74 73//73 67//67
f 67//67 68//68 74//74
f 75//75 74//74 68//68
f 68//68 69//69 75//75
f 76//76 75//75 69//69
f 69//69 70//70 76//76
f 77//77 76//76 70//70
f 70//70 71//71 77//77
f 78//78 77//77 71//71
f 71//71 72//72 78//78
f 73//73 78//78 72//72
f 72//72 67//67 73//73
f 80//80 79//79 73//73
f 73//73 74//74 80//80
f 81//81 80//80 74//74
f 74//74 75//75 81//81
f 82//82 81//81 75//75
f 75//75 76//76 82//82
f 83//83 82//82 76//76
f 76//76 77//77 83//83
f 84//84 83//83 77//77
f 77//77 78//78 84//84
f 79//79 84//84 78//78
f 78//78 73//73 79//79
f 85//85 90//90 79//79
f 79//79 80//80 85//85
f 86//86 85//85 80//80
f 80//80 81//81 86//86
f 87//87 86//86 81//81
f 81//81 82//82 87//87
f 88//88 87//87 82//82
f 82//82 83//83 88//88
f 89//89 88//88 83//83
f 83//83 84//84 89//89
f 90//90 89//89 84//84
f 84//84 79//79 90//90
f 96//96 95//95 85//85
f 85//85 86//86 96//96
f 91//91 96//96 86//86
f 86//86 87//87 91//91
f 92//92 91//91 87//87
f 87//87 88//88 92//92
f 93//93 92//92 88//88
f 88//88 89//89 93//93
f 94//94 93//93 89//89
f 89//89 90//90 94//94
f 95//95 94//94 90//90
f 90//90 85//85 95//95
f 98//98 97//97 91//91
f 91//91 92//92 98//98
f 99//99 98//98 92//92
f 92//92 93//93 99//99
f 100//100 99//99 93//93
f 93//93 94//94 100//100
f 101//101 100//100 94//94
f 94//94 95//95 101//101
f 102//102 101//101 95//95
f 95//95 96//96 102//102
f 97//97 102//102 96//96
f 96//96 91//91 97//97
f 104//104 103//103 97//97
f 97//97 98//98 104//104
f 105//105 104//104 98//98
f 98//98 99//99 105//105
f 106//106 105//105 99//99
f 99//99 100//100 106//106
f 107//107 106//106 100//100
f 100//100 101//101 107//107
f 108//108 107//107 101//101
f 101//101 102//102 108//108
f 103//103 108//108 102//102
f 102//102 97//97 103//103
f 60//60 59//59 58//58
f 60//60 58//58 57//57
f 60//60 57//57 56//56
f 60//60 56//56 55//55
f 103//103 104//104 105//105
f 103//103 105//105 106//106
f 103//103 106//106 107//107
f 103//103 107//107 108//108
f 116//116 115//115 109//109
f 109//109 110//110 116//116
f 117//117 116//116 110//110
f 110//110 111//111 117//117
f 118//118 117//117 111//111
f 111//111 112//112 118//118
f 119//119 118//118 112//112
f 112//112 113//113 119//119
f 120//120 119//119 113//113
f 113//113 114//114 120//120
f 115//115 120//120 114//114
f 114//114 109//109 115//115
f 122//122 121//121 115//115
f 115//115 116//116 122//122
f 123//123 122//122 116//116
f 116//116 117//117 123//123
f 124//124 123//123 117//117
f 117//117 118//118 124//124
f 125//125 124//124 118//118
f 118//118 119//119 125//125
f 126//126 125//125 119//119
f 119//119 120//120 126//126
f 121//121 126//126 120//120
f 120//120 115//115 121//121
f 128//128 127//127 121//121
f 121//121 122//122 128//128
f 129//129 128//128 122//122
f 122//122 123//123 129//129
f 130//130 129//129 123//123
f 123//123 124//124 130//130
f 131//131 130//130 124//124
f 124//124 125//125 131//131
f 132//132 131//131 125//125
f 125//125 126//126 132//132
f 127//127 132//132 126//126
f 126//126 121//121 127//127
f 134//134 133//133 127//127
f 127//127 128//128 134//134
f 135//135 134//134 128//128
f 128//128 129//129 135//135
f 136//136 135//135 129//129
f 129//129 130//130 136//136
f 137//137 136//136 130//130
f 130//130 131//131 137//137
f 138//138 137//137 131//131
f 131//131 132//132 138//138
f 133//133 138//138 132//132
f 132//132 127//127 133//133
f 140//140 139//139 133//133
f 133//133 134//134 140//140
f 141//141 140//140 134//134
f 134//134 135//135 141//141
f 142//142 141//141 135//135
f 135//135 136//136 142//142
f 143//143 142//142 136//136
f 136//136 137//137 143//143
f 144//144 143//143 137//137
f 137//137 138//138 144//144
f 139//139 144//144 138//138
f 138//138 133//133 139//139
f 146//146 145//145 139//139
f 139//139 140//140 146//146
f 147//147 146//146 140//140
f 140//140 141//141 147//147
f 148//148 147//147 141//141
f 141//141 142//142 148//148
f 149//149 148//148 142//142
f 142//142 143//143 149//149
f 150//150 149//149 143//143
f 143//143 144//144 150//150
f 145//145 150//150 144//144
f 144//144 139//139 145//145
f 152//152 151//151 145//145
f 145//145 146//146 152//152
f 153//153 152//152 146//146
f 146//146 147//147 153//153
f 154//154 153//153 147//147
f 147//147 148//148 154//154
f 155//155 154//154 148//148
f 148//148 149//149 155//155
f 156//156 155//155 149//149
f 149//149 150//150 156//156
f 151//151 156//156 150//150
f 150//150 145//145 151//151
f 158//158 157//157 151//151
f 151//151 152//152 158//158
f 159//159 158//158 152//152
f 152//152 153//153 159//159
f 160//160 159//159 153//153
f 153//153 154//154 160//160
f 161//161 160//160 154//154
f 154//154 155//155 161//161
f 162//162 161//161 155//155
f 155//155 156//156 162//162
f 157//157 162//162 156//156
f 156//156 151//151 157//157
f 114//114 113//113 112//112
f 114//114 112//112 111//111
f 109//109 114//114 111//111
f 109//109 111//111 110//110
f 157//157 158//158 159//159
f 157//157 159//159 160//160
f 157//157 160//160 161//161
f 157//157 161//161 162//162
f 170//170 169//169 163//163
f 163//163 164//164 170//170
f 171//171 170//170 164//164
f 164//164 165//165 171//171
f 172//172 171//171 165//165
f 165//165 166//166 172//172
f 173//173 172//172 166//166
f 166//166 167//167 173//173
f 174//174 173//173 167//167
f 167//167 168//168 174//174
f 169//169 174//174 168//168
f 168//168 163//163 169//169
f 176//176 175//175 169//169
f 169//169 170//170 176//176
f 177//177 176//176 170//170
f 170//170 171//171 177//177
f 178//178 177//177 171//171
f 171//171 172//172 178//178
f 179//179 178//178 172//172
f 172//172 173//173 179//179
f 180//180 179//179 173//173
f 173//173 174//174 180//180
f 175//175 180//180 174//174
f 174//174 169//169 175//175
f 182//182 181//181 175//175
f 175//175 176//176 182//182
f 183//183 182//182 176//176
f 176//176 177//177 183//183
f 184//184 183//183 177//177
f 177//177 178//178 184//184
f 185//185 184//184 178//178
f 178//178 179//179 185//185
f 186//186 185//185 179//179
f 179//179 180//180 186//186
f 181//181 186//186 180//180
f 180//180 175//175 181//181
f 188//188 187//187 181//181
f 181//181 182//182 188//188
f 189//189 188//188 182//182
f 182//182 183//183 189//189
f 190//190 189//189 183//183
f 183//183 184//184 190//190
f 191//191 190//190 184//184
f 184//184 185//185 191//191
f 192//192 191//191 185//185
f 185//185 186//186 192//192
f 187//187 192//192 186//186
f 186//186 181//181 187//187
f 195//195 194//194 187//187
f 187//187 188//188 195//195
f 196//196 195//195 188//188
f 188//188 189//189 196//196
f 197//197 196//196 189//189
f 189//189 190//190 197//197
f 198//198 197//197 190//190
f 190//190 191//191 198//198
f 193//193 198//198 191//191
f 191//191 192//192 193//193
f 194//194 193//193 192//192
f 192//192 187//187 194//194
f 202//202 201//201 193//193
f 193//193 194//194 202//202
f 203//203 202//202 194//194
f 194//194 195//195 203//203
f 204//204 203//203 195//195
f 195//195 196//196 204//204
f 199//199 204//204 196//196
f 196//196 197//197 199//199
f 200//200 199//199 197//197
f 197//197 198//198 200//200
f 201//201 200//200 198//198
f 198//198 193//193 201//201
f 206//206 205//205 199//199
f 199//199 200//200 206//206
f 207//207 206//206 200//200
f 200//200 201//201 207//207
f 208//208 207//207 201//201
f 201//201 202//202 208//208
f 209//209 208//208 202//202
f 202//202 203//203 209//209
f 210//210 209//209 203//203
f 203//203 204//204 210//210
f 205//205 210//210 204//204
f 204//204 199//199 205//205
f 212//212 211//211 205//205
f 205//205 206//206 212//212
f 213//213 212//212 206//206
f 206//206 207//207 213//213
f 214//214 213//213 207//207
f 207//207 208//208 214//214
f 215//215 214//214 208//208
f 208//208 209//209 215//215
f 216//216 215//215 209//209
f 209//209 210//210 216//216
f 211//211 216//216 210//210
f 210//210 205//205 211//211
f 168//168 167//167 166//166
f 168//168 166//166 165//165
f 163//163 168//168 165//165
f 163//163 165//165 164//164
f 211//211 212//212 213//213
f 211//211 213//213 214//214
f 211//211 214//214 215//215
f 211//211 215//215 216//216
f 217//217 218//218 219//219
f 220//220 221//221 217//217
f 217//217 221//221 218//218
f 222//222 221//221 220//220
f 218//218 223//223 219//219
f 223//223 218//218 224//224
f 218//218 225//225 224//224
f 218//218 221//221 225//225
f 226//226 225//225 222//222
f 222//222 225//225 221//221
f 225//225 227//227 224//224
f 226//226 227//227 225//225
f 219//219 228//228 217//217
f 229//229 230//230 228//228
f 230//230 217//217 228//228
f 230//230 220//220 217//217
f 230//230 231//231 220//220
f 220//220 231//231 222//222
f 232//232 233//233 234//234
f 219//219 223//223 228//228
f 229//229 228//228 223//223
f 224//224 229//229 223//223
f 229//229 232//232 234//234
f 229//229 224//224 232//232
f 235//235 222//222 231//231
f 226//226 222//222 235//235
f 232//232 236//236 233//233
f 224//224 227//227 232//232
f 227//227 236//236 232//232
f 227//227 237//237 236//236
f 227//227 226//226 237//237
f 237//237 226//226 235//235
f 229//229 238//238 230//230
f 238//238 231//231 230//230
f 239//239 240//240 233//233
f 233//233 240//240 234//234
f 241//241 238//238 229//229
f 234//234 241//241 229//229
f 240//240 241//241 234//234
f 241//241 242//242 238//238
f 242//242 231//231 238//238
f 242//242 235//235 231//231
f 243//243 244//244 236//236
f 244//244 233//233 236//236
f 244//244 239//239 233//233
f 243//243 236//236 237//237
f 243//243 237//237 245//245
f 237//237 235//235 245//245
f 235//235 246//246 245//245
f 235//235 242//242 246//246
f 243//243 247//247 244//244
f 245//245 248//248 243//243
f 243//243 248//248 247//247
f 246//246 248//248 245//245
f 239//239 249//249 240//240
f 240//240 249//249 241//241
f 241//241 249//249 250//250
f 250//250 242//242 241//241
f 249//249 239//239 251//251
f 239//239 252//252 251//251
f 239//239 244//244 252//252
f 253//253 250//250 249//249
f 253//253 249//249 251//251
f 253//253 254//254 250//250
f 254//254 242//242 250//250
f 254//254 246//246 242//242
f 244//244 247//247 252//252
f 252//252 247//247 255//255
f 247//247 256//256 255//255
f 248//248 256//256 247//247
f 248//248 246//246 256//256
f 256//256 246//246 254//254
f 257//257 258//258 259//259
f 258//258 257//257 252//252
f 257//257 251//251 252//252
f 257//257 260//260 251//251
f 261//261 251//251 260//260
f 261//261 253//253 251//251
f 254//254 253//253 262//262
f 253//253 263//263 262//262
f 253//253 261//261 263//263
f 264//264 265//265 263//263
f 263//263 265//265 262//262
f 266//266 265//265 264//264
f 267//267 268//268 269//269
f 270//270 271//271 267//267
f 267//267 271//271 268//268
f 259//259 258//258 270//270
f 258//258 271//271 270//270
f 258//258 272//272 271//271
f 258//258 252//252 255//255
f 273//273 258//258 255//255
f 272//272 258//258 273//273
f 273//273 255//255 256//256
f 273//273 256//256 274//274
f 275//275 276//276 274//274
f 275//275 274//274 256//256
f 262//262 275//275 256//256
f 254//254 262//262 256//256
f 275//275 262//262 277//277
f 262//262 278//278 277//277
f 262//262 265//265 278//278
f 279//279 280//280 266//266
f 280//280 265//265 266//266
f 280//280 278//278 265//265
f 281//281 280//280 279//279
f 282//282 283//283 284//284
f 269//269 268//268 282//282
f 268//268 283//283 282//282
f 268//268 285//285 283//283
f 286//286 285//285 287//287
f 285//285 271//271 287//287
f 285//285 268//268 271//271
f 272//272 288//288 271//271
f 271//271 288//288 287//287
f 273//273 289//289 272//272
f 272//272 289//289 288//288
f 274//274 290//290 273//273
f 273//273 290//290 289//289
f 276//276 290//290 274//274
f 278//278 291//291 277//277
f 291//291 278//278 292//292
f 278//278 293//293 292//292
f 278//278 280//280 293//293
f 294//294 295//295 281//281
f 295//295 280//280 281//281
f 295//295 293//293 280//280
f 296//296 295//295 294//294
f 283//283 297//297 284//284
f 285//285 298//298 283//283
f 283//283 298//298 297//297
f 286//286 298//298 285//285
f 293//293 299//299 292//292
f 295//295 300//300 293//293
f 293//293 300//300 299//299
f 296//296 300//300 295//295
f 301//301 302//302 303//303
f 302//302 301//301 259//259
f 301//301 257//257 259//259
f 301//301 304//304 257//257
f 305//305 257//257 304//304
f 305//305 260//260 257//257
f 306//306 260//260 305//305
f 306//306 261//261 260//260
f 307//307 261//261 306//306
f 307//307 263//263 261//261
f 308//308 263//263 307//307
f 308//308 264//264 263//263
f 308//308 309//309 264//264
f 264//264 309//309 266//266
f 310//310 311//311 269//269
f 269//269 311//311 267//267
f 311//311 303//303 302//302
f 270//270 311//311 302//302
f 267//267 311//311 270//270
f 259//259 270//270 302//302
f 312//312 313//313 314//314
f 313//313 312//312 276//276
f 275//275 313//313 276//276
f 313//313 315//315 316//316
f 313//313 275//275 315//315
f 277//277 315//315 275//275
f 279//279 266//266 309//309
f 279//279 309//309 317//317
f 281//281 279//279 318//318
f 279//279 319//319 318//318
f 279//279 317//317 319//319
f 320//320 318//318 319//319
f 321//321 322//322 284//284
f 284//284 322//322 282//282
f 269//269 282//282 322//322
f 269//269 322//322 310//310
f 323//323 324//324 286//286
f 323//323 286//286 287//287
f 287//287 325//325 323//323
f 288//288 325//325 287//287
f 288//288 326//326 325//325
f 289//289 326//326 288//288
f 314//314 326//326 312//312
f 326//326 290//290 312//312
f 326//326 289//289 290//290
f 315//315 327//327 316//316
f 290//290 276//276 312//312
f 277//277 291//291 315//315
f 291//291 327//327 315//315
f 291//291 328//328 327//327
f 329//329 328//328 291//291
f 329//329 291//291 292//292
f 294//294 281//281 318//318
f 330//330 296//296 294//294
f 330//330 294//294 318//318
f 331//331 330//330 318//318
f 320//320 331//331 318//318
f 332//332 330//330 331//331
f 284//284 297//297 321//321
f 321//321 297//297 333//333
f 297//297 334//334 333//333
f 298//298 334//334 297//297
f 298//298 286//286 334//334
f 334//334 286//286 324//324
f 292//292 299//299 329//329
f 329//329 299//299 335//335
f 300//300 336//336 337//337
f 335//335 300//300 337//337
f 299//299 300//300 335//335
f 338//338 339//339 336//336
f 338//338 336//336 300//300
f 330//330 338//338 300//300
f 296//296 330//330 300//300
f 332//332 338//338 330//330
f 336//336 340//340 337//337
f 339//339 340//340 336//336
f 303//303 341//341 301//301
f 301//301 341//341 304//304
f 304//304 341//341 342//342
f 343//343 344//344 342//342
f 344//344 304//304 342//342
f 344//344 305//305 304//304
f 345//345 305//305 344//344
f 345//345 306//306 305//305
f 346//346 307//307 347//347
f 307//307 345//345 347//347
f 307//307 306//306 345//345
f 307//307 346//346 308//308
f 308//308 346//346 348//348
f 348//348 309//309 308//308
f 310//310 349//349 311//311
f 311//311 349//349 303//303
f 349//349 341//341 303//303
f 349//349 350//350 341//341
f 350//350 342//342 341//341
f 350//350 351//351 342//342
f 352//352 353//353 343//343
f 342//342 352//352 343//343
f 351//351 352//352 342//342
f 353//353 352//352 314//314
f 313//313 353//353 314//314
f 353//353 354//354 355//355
f 353//353 313//313 354//354
f 313//313 347//347 356//356
f 354//354 313//313 356//356
f 313//313 346//346 347//347
f 357//357 313//313 316//316
f 313//313 357//357 346//346
f 357//357 348//348 346//346
f 357//357 358//358 348//348
f 309//309 348//348 317//317
f 348//348 359//359 317//317
f 348//348 358//358 359//359
f 317//317 359//359 319//319
f 319//319 359//359 360//360
f 360//360 320//320 319//319
f 321//321 361//361 322//322
f 322//322 361//361 310//310
f 361//361 349//349 310//310
f 361//361 362//362 349//349
f 323//323 350//350 324//324
f 350//350 362//362 324//324
f 350//350 349//349 362//362
f 350//350 323//323 351//351
f 351//351 323//323 325//325
f 351//351 325//325 352//352
f 352//352 325//325 326//326
f 354//354 363//363 355//355
f 326//326 314//314 352//352
f 356//356 363//363 354//354
f 327//327 357//357 316//316
f 357//357 327//327 358//358
f 358//358 327//327 328//328
f 329//329 364//364 328//328
f 364//364 358//358 328//328
f 364//364 359//359 358//358
f 364//364 360//360 359//359
f 364//364 365//365 360//360
f 320//320 360//360 331//331
f 360//360 366//366 331//331
f 360//360 365//365 366//366
f 366//366 332//332 331//331
f 321//321 333//333 361//361
f 361//361 333//333 362//362
f 362//362 333//333 334//334
f 334//334 324//324 362//362
f 329//329 335//335 364//364
f 337//337 367//367 335//335
f 367//367 364//364 335//335
f 367//367 365//365 364//364
f 338//338 366//366 339//339
f 366//366 367//367 339//339
f 366//366 365//365 367//367
f 338//338 332//332 366//366
f 337//337 340//340 367//367
f 340//340 339//339 367//367
f 368//368 369//369 370//370
f 371//371 372//372 368//368
f 368//368 372//372 369//369
f 373//373 372//372 371//371
f 344//344 343//343 369//369
f 343//343 370//370 369//369
f 343//343 374//374 370//370
f 344//344 369//369 372//372
f 344//344 372//372 345//345
f 372//372 373//373 345//345
f 373//373 347//347 345//345
f 373//373 375//375 347//347
f 343//343 353//353 374//374
f 374//374 353//353 376//376
f 353//353 355//355 377//377
f 378//378 353//353 377//377
f 376//376 353//353 378//378
f 377//377 356//356 378//378
f 356//356 375//375 378//378
f 356//356 347//347 375//375
f 355//355 363//363 377//377
f 363//363 356//356 377//377
f 379//379 380//380 370//370
f 370//370 380//380 368//368
f 381//381 368//368 380//380
f 381//381 371//371 368//368
f 381//381 382//382 371//371
f 371//371 382//382 373//373
f 383//383 379//379 384//384
f 379//379 374//374 384//384
f 379//379 370//370 374//374
f 384//384 385//385 383//383
f 386//386 373//373 382//382
f 375//375 373//373 386//386
f 374//374 376//376 384//384
f 384//384 376//376 385//385
f 376//376 387//387 385//385
f 376//376 378//378 387//387
f 378//378 375//375 387//387
f 387//387 375//375 386//386
f 388//388 389//389 390//390
f 391//391 392//392 388//388
f 388//388 392//392 389//389
f 393//393 392//392 391//391
f 380//380 379//379 389//389
f 379//379 390//390 389//389
f 379//379 394//394 390//390
f 380//380 389//389 392//392
f 380//380 392//392 381//381
f 392//392 393//393 381//381
f 393//393 382//382 381//381
f 393//393 395//395 382//382
f 379//379 383//383 394//394
f 394//394 383//383 396//396
f 383//383 385//385 397//397
f 398//398 383//383 397//397
f 396//396 383//383 398//398
f 397//397 386//386 398//398
f 386//386 395//395 398//398
f 386//386 382//382 395//395
f 385//385 387//387 397//397
f 387//387 386//386 397//397
f 399//399 400//400 390//390
f 390//390 400//400 388//388
f 401//401 388//388 400//400
f 401//401 391//391 388//388
f 401//401 402//402 391//391
f 391//391 402//402 393//393
f 403//403 399//399 404//404
f 399//399 394//394 404//404
f 399//399 390//390 394//394
f 405//405 406//406 403//403
f 405//405 403//403 404//404
f 405//405 395//395 406//406
f 395//395 402//402 406//406
f 395//395 393//393 402//402
f 394//394 396//396 404//404
f 404//404 396//396 405//405
f 405//405 396//396 398//398
f 398//398 395//395 405//405
f 399//399 407//407 400//400
f 400//400 407//407 401//401
f 401//401 407//407 408//408
f 408//408 402//402 401//401
f 399//399 403//403 407//407
f 407//407 403//403 408//408
f 408//408 403//403 406//406
f 406//406 402//402 408//408
f 410//410 415//415 411//411
f 415//415 410//410 416//416
f 410//410 417//417 416//416
f 418//418 417//417 414//414
f 417//417 419//419 416//416
f 418//418 419//419 417//417
f 421//421 422//422 420//420
f 424//424 425//425 426//426
f 411//411 415//415 420//420
f 421//421 420//420 415//415
f 416//416 421//421 415//415
f 421//421 424//424 426//426
f 421//421 416//416 424//424
f 427//427 414//414 423//423
f 418//418 414//414 427//427
f 424//424 428//428 425//425
f 416//416 419//419 424//424
f 419//419 428//428 424//424
f 419//419 429//429 428//428
f 419//419 418//418 429//429
f 429//429 418//418 427//427
f 421//421 430//430 422//422
f 430//430 423//423 422//422
f 431//431 432//432 425//425
f 425//425 432//432 426//426
f 433//433 430//430 421//421
f 426//426 433//433 421//421
f 432//432 433//433 426//426
f 433//433 434//434 430//430
f 434//434 423//423 430//430
f 434//434 427//427 423//423
f 435//435 436//436 428//428
f 436//436 425//425 428//428
f 436//436 431//431 425//425
f 435//435 428//428 429//429
f 435//435 429//429 437//437
f 429//429 427//427 437//437
f 427//427 438//438 437//437
f 427//427 434//434 438//438
f 435//435 439//439 436//436
f 437//437 440//440 435//435
f 435//435 440//440 439//439
f 438//438 440//440 437//437
f 431//431 441//441 432//432
f 432//432 441//441 433//433
f 433//433 441//441 442//442
f 442//442 434//434 433//433
f 441//441 431//431 443//443
f 431//431 444//444 443//443
f 431//431 436//436 444//444
f 445//445 442//442 441//441
f 445//445 441//441 443//443
f 445//445 446//446 442//442
f 446//446 434//434 442//442
f 446//446 438//438 434//434
f 436//436 439//439 444//444
f 444//444 439//439 447//447
f 439//439 448//448 447//447
f 440//440 448//448 439//439
f 440//440 438//438 448//448
f 448//448 438//438 446//446
f 449//449 450//450 451//451
f 450//450 449//449 444//444
f 449//449 443//443 444//444
f 449//449 452//452 443//443
f 453//453 443//443 452//452
f 453//453 445//445 443//443
f 446//446 445//445 454//454
f 445//445 455//455 454//454
f 445//445 453//453 455//455
f 456//456 457//457 455//455
f 455//455 457//457 454//454
f 458//458 457//457 456//456
f 459//459 460//460 461//461
f 462//462 463//463 459//459
f 459//459 463//463 460//460
f 451//451 450//450 462//462
f 450//450 463//463 462//462
f 450//450 464//464 463//463
f 450//450 444//444 447//447
f 465//465 450//450 447//447
f 464//464 450//450 465//465
f 465//465 447//447 448//448
f 465//465 448//448 466//466
f 467//467 468//468 466//466
f 467//467 466//466 448//448
f 454//454 467//467 448//448
f 446//446 454//454 448//448
f 467//467 454//454 469//469
f 454//454 470//470 469//469
f 454//454 457//457 470//470
f 471//471 472//472 458//458
f 472//472 457//457 458//458
f 472//472 470//470 457//457
f 473//473 472//472 471//471
f 474//474 475//475 476//476
f 461//461 460//460 474//474
f 460//460 475//475 474//474
f 460//460 477//477 475//475
f 478//478 477//477 479//479
f 477//477 463//463 479//479
f 477//477 460//460 463//463
f 464//464 480//480 463//463
f 463//463 480//480 479//479
f 465//465 481//481 464//464
f 464//464 481//481 480//480
f 466//466 482//482 465//465
f 465//465 482//482 481//481
f 468//468 482//482 466//466
f 470//470 483//483 469//469
f 483//483 470//470 484//484
f 470//470 485//485 484//484
f 470//470 472//472 485//485
f 486//486 487//487 473//473
f 487//487 472//472 473//473
f 487//487 485//485 472//472
f 477//477 490//490 475//475
f 478//478 490//490 477//477
f 485//485 491//491 484//484
f 493//493 494//494 495//495
f 494//494 493//493 451//451
f 493//493 449//449 451//451
f 493//493 496//496 449//449
f 497//497 449//449 496//496
f 497//497 452//452 449//449
f 498//498 452//452 497//497
f 498//498 453//453 452//452
f 499//499 453//453 498//498
f 499//499 455//455 453//453
f 500//500 455//455 499//499
f 500//500 456//456 455//455
f 500//500 501//501 456//456
f 456//456 501//501 458//458
f 502//502 503//503 461//461
f 461//461 503//503 459//459
f 503//503 495//495 494//494
f 462//462 503//503 494//494
f 459//459 503//503 462//462
f 451//451 462//462 494//494
f 504//504 505//505 506//506
f 505//505 504//504 468//468
f 467//467 505//505 468//468
f 505//505 507//507 508//508
f 505//505 467//467 507//507
f 469//469 507//507 467//467
f 471//471 458//458 501//501
f 471//471 501//501 509//509
f 473//473 471//471 510//510
f 471//471 511//511 510//510
f 471//471 509//509 511//511
f 512//512 510//510 511//511
f 476//476 514//514 474//474
f 461//461 474//474 514//514
f 461//461 514//514 502//502
f 515//515 516//516 478//478
f 515//515 478//478 479//479
f 479//479 517//517 515//515
f 480//480 517//517 479//479
f 480//480 518//518 517//517
f 481//481 518//518 480//480
f 506//506 518//518 504//504
f 518//518 482//482 504//504
f 518//518 481//481 482//482
f 507//507 519//519 508//508
f 482//482 468//468 504//504
f 469//469 483//483 507//507
f 483//483 519//519 507//507
f 483//483 520//520 519//519
f 521//521 520//520 483//483
f 521//521 483//483 484//484
f 486//486 473//473 510//510
f 512//512 523//523 510//510
f 490//490 478//478 526//526
f 526//526 478//478 516//516
f 484//484 491//491 521//521
f 521//521 491//491 527//527
f 495//495 533//533 493//493
f 493//493 533//533 496//496
f 496//496 533//533 534//534
f 535//535 536//536 534//534
f 536//536 496//496 534//534
f 536//536 497//497 496//496
f 537//537 497//497 536//536
f 537//537 498//498 497//497
f 538//538 499//499 539//539
f 499//499 537//537 539//539
f 499//499 498//498 537//537
f 499//499 538//538 500//500
f 500//500 538//538 540//540
f 540//540 501//501 500//500
f 502//502 541//541 503//503
f 503//503 541//541 495//495
f 541//541 533//533 495//495
f 541//541 542//542 533//533
f 542//542 534//534 533//533
f 542//542 543//543 534//534
f 544//544 545//545 535//535
f 534//534 544//544 535//535
f 543//543 544//544 534//534
f 545//545 544//544 506//506
f 505//505 545//545 506//506
f 545//545 546//546 547//547
f 545//545 505//505 546//546
f 505//505 539//539 548//548
f 546//546 505//505 548//548
f 505//505 538//538 539//539
f 549//549 505//505 508//508
f 505//505 549//549 538//538
f 549//549 540//540 538//538
f 549//549 550//550 540//540
f 501//501 540//540 509//509
f 540//540 551//551 509//509
f 540//540 550//550 551//551
f 509//509 551//551 511//511
f 511//511 551//551 552//552
f 552//552 512//512 511//511
f 514//514 553//553 502//502
f 553//553 541//541 502//502
f 553//553 554//554 541//541
f 515//515 542//542 516//516
f 542//542 554//554 516//516
f 542//542 541//541 554//554
f 542//542 515//515 543//543
f 543//543 515//515 517//517
f 543//543 517//517 544//544
f 544//544 517//517 518//518
f 546//546 555//555 547//547
f 518//518 506//506 544//544
f 548//548 555//555 546//546
f 519//519 549//549 508//508
f 549//549 519//519 550//550
f 550//550 519//519 520//520
f 521//521 556//556 520//520
f 556//556 550//550 520//520
f 556//556 551//551 550//550
f 556//556 552//552 551//551
f 512//512 552//552 523//523
f 526//526 516//516 554//554
f 521//521 527//527 556//556
f 560//560 561//561 562//562
f 563//563 564//564 560//560
f 560//560 564//564 561//561
f 565//565 564//564 563//563
f 536//536 535//535 561//561
f 535//535 562//562 561//561
f 535//535 566//566 562//562
f 536//536 561//561 564//564
f 536//536 564//564 537//537
f 564//564 565//565 537//537
f 565//565 539//539 537//537
f 565//565 567//567 539//539
f 535//535 545//545 566//566
f 566//566 545//545 568//568
f 545//545 547//547 569//569
f 570//570 545//545 569//569
f 568//568 545//545 570//570
f 569//569 548//548 570//570
f 548//548 567//567 570//570
f 548//548 539//539 567//567
f 547//547 555//555 569//569
f 555//555 548//548 569//569
f 571//571 572//572 562//562
f 562//562 572//572 560//560
f 573//573 560//560 572//572
f 573//573 563//563 560//560
f 573//573 574//574 563//563
f 563//563 574//574 565//565
f 575//575 571//571 576//576
f 571//571 566//566 576//576
f 571//571 562//562 566//566
f 576//576 577//577 575//575
f 578//578 565//565 574//574
f 567//567 565//565 578//578
f 566//566 568//568 576//576
f 576//576 568//568 577//577
f 568//568 579//579 577//577
f 568//568 570//570 579//579
f 570//570 567//567 579//579
f 579//579 567//567 578//578
f 580//580 581//581 582//582
f 580//580 584//584 581//581
f 572//572 571//571 581//581
f 571//571 582//582 581//581
f 571//571 586//586 582//582
f 572//572 581//581 584//584
f 572//572 584//584 573//573
f 584//584 585//585 573//573
f 585//585 574//574 573//573
f 585//585 587//587 574//574
f 571//571 575//575 586//586
f 586//586 575//575 588//588
f 575//575 577//577 589//589
f 590//590 575//575 589//589
f 588//588 575//575 590//590
f 589//589 578//578 590//590
f 578//578 587//587 590//590
f 578//578 574//574 587//587
f 577//577 579//579 589//589
f 579//579 578//578 589//589
f 591//591 592//592 582//582
f 582//582 592//592 580//580
f 595//595 591//591 596//596
f 591//591 586//586 596//596
f 591//591 582//582 586//586
f 597//597 598//598 595//595
f 597//597 595//595 596//596
f 597//597 587//587 598//598
f 586//586 588//588 596//596
f 596//596 588//588 597//597
f 597//597 588//588 590//590
f 590//590 587//587 597//597
f 591//591 599//599 592//592
f 591//591 595//595 599//599
f 599//599 595//595 600//600
f 600//600 595//595 598//598
f 612//612 611//611 601//601
f 601//601 602//602 612//612
f 613//613 612//612 602//602
f 602//602 603//603 613//613
f 614//614 613//613 603//603
f 603//603 604//604 614//614
f 615//615 614//614 604//604
f 604//604 605//605 615//615
f 616//616 615//615 605//605
f 605//605 606//606 616//616
f 617//617 616//616 606//606
f 606//606 607//607 617//617
f 618//618 617//617 607//607
f 607//607 608//608 618//618
f 619//619 618//618 608//608
f 608//608 609//609 619//619
f 620//620 619//619 609//609
f 609//609 610//610 620//620
f 611//611 620//620 610//610
f 610//610 601//601 611//611
f 622//622 621//621 611//611
f 611//611 612//612 622//622
f 623//623 622//622 612//612
f 612//612 613//613 623//623
f 624//624 623//623 613//613
f 613//613 614//614 624//624
f 625//625 624//624 614//614
f 614//614 615//615 625//625
f 626//626 625//625 615//615
f 615//615 616//616 626//626
f 627//627 626//626 616//616
f 616//616 617//617 627//627
f 628//628 627//627 617//617
f 617//617 618//618 628//628
f 629//629 628//628 618//618
f 618//618 619//619 629//629
f 630//630 629//629 619//619
f 619//619 620//620 630//630
f 621//621 630//630 620//620
f 620//620 611//611 621//621
f 632//632 631//631 621//621
f 621//621 622//622 632//632
f 633//633 632//632 622//622
f 622//622 623//623 633//633
f 634//634 633//633 623//623
f 623//623 624//624 634//634
f 635//635 634//634 624//624
f 624//624 625//625 635//635
f 636//636 635//635 625//625
f 625//625 626//626 636//636
f 637//637 636//636 626//626
f 626//626 627//627 637//637
f 638//638 637//637 627//627
f 627//627 628//628 638//638
f 639//639 638//638 628//628
f 628//628 629//629 639//639
f 640//640 639//639 629//629
f 629//629 630//630 640//640
f 631//631 640//640 630//630
f 630//630 621//621 631//631
f 642//642 641//641 631//631
f 631//631 632//632 642//642
f 643//643 642//642 632//632
f 632//632 633//633 643//643
f 644//644 643//643 633//633
f 633//633 634//634 644//644
f 645//645 644//644 634//634
f 634//634 635//635 645//645
f 646//646 645//645 635//635
f 635//635 636//636 646//646
f 647//647 646//646 636//636
f 636//636 637//637 647//647
f 648//648 647//647 637//637
f 637//637 638//638 648//648
f 649//649 648//648 638//638
f 638//638 639//639 649//649
f 650//650 649//649 639//639
f 639//639 640//640 650//650
f 641//641 650//650 640//640
f 640//640 631//631 641//641
f 652//652 651//651 641//641
f 641//641 642//642 652//652
f 653//653 652//652 642//642
f 642//642 643//643 653//653
f 654//654 653//653 643//643
f 643//643 644//644 654//654
f 655//655 654//654 644//644
f 644//644 645//645 655//655
f 656//656 655//655 645//645
f 645//645 646//646 656//656
f 657//657 656//656 646//646
f 646//646 647//647 657//657
f 658//658 657//657 647//647
f 647//647 648//648 658//658
f 659//659 658//658 648//648
f 648//648 649//649 659//659
f 660//660 659//659 649//649
f 649//649 650//650 660//660
f 651//651 660//660 650//650
f 650//650 641//641 651//651
f 662//662 661//661 651//651
f 651//651 652//652 662//662
f 663//663 662//662 652//652
f 652//652 653//653 663//663
f 664//664 663//663 653//653
f 653//653 654//654 664//664
f 665//665 664//664 654//654
f 654//654 655//655 665//665
f 666//666 665//665 655//655
f 655//655 656//656 666//666
f 667//667 666//666 656//656
f 656//656 657//657 667//667
f 668//668 667//667 657//657
f 657//657 658//658 668//668
f 669//669 668//668 658//658
f 658//658 659//659 669//669
f 670//670 669//669 659//659
f 659//659 660//660 670//670
f 661//661 670//670 660//660
f 660//660 651//651 661//661
f 672//672 671//671 661//661
f 661//661 662//662 672//672
f 673//673 672//672 662//662
f 662//662 663//663 673//673
f 674//674 673//673 663//663
f 663//663 664//664 674//674
f 675//675 674//674 664//664
f 664//664 665//665 675//675
f 676//676 675//675 665//665
f 665//665 666//666 676//676
f 677//677 676//676 666//666
f 666//666 667//667 677//677
f 678//678 677//677 667//667
f 667//667 668//668 678//678
f 679//679 678//678 668//668
f 668//668 669//669 679//679
f 680//680 679//679 669//669
f 669//669 670//670 680//680
f 671//671 680//680 670//670
f 670//670 661//661 671//671
f 682//682 681//681 671//671
f 671//671 672//672 682//682
f 683//683 682//682 672//672
f 672//672 673//673 683//683
f 684//684 683//683 673//673
f 673//673 674//674 684//684
f 685//685 684//684 674//674
f 674//674 675//675 685//685
f 686//686 685//685 675//675
f 675//675 676//676 686//686
f 687//687 686//686 676//676
f 676//676 677//677 687//687
f 688//688 687//687 677//677
f 677//677 678//678 688//688
f 689//689 688//688 678//678
f 678//678 679//679 689//689
f 690//690 689//689 679//679
f 679//679 680//680 690//690
f 681//681 690//690 680//680
f 680//680 671//671 681//681
f 693//693 692//692 681//681
f 681//681 682//682 693//693
f 694//694 693//693 682//682
f 682//682 683//683 694//694
f 695//695 694//694 683//683
f 683//683 684//684 695//695
f 696//696 695//695 684//684
f 684//684 685//685 696//696
f 697//697 696//696 685//685
f 685//685 686//686 697//697
f 698//698 697//697 686//686
f 686//686 687//687 698//698
f 699//699 698//698 687//687
f 687//687 688//688 699//699
f 700//700 699//699 688//688
f 688//688 689//689 700//700
f 691//691 700//700 689//689
f 689//689 690//690 691//691
f 692//692 691//691 690//690
f 690//690 681//681 692//692
f 702//702 701//701 691//691
f 691//691 692//692 702//702
f 703//703 702//702 692//692
f 692//692 693//693 703//703
f 704//704 703//703 693//693
f 693//693 694//694 704//704
f 705//705 704//704 694//694
f 694//694 695//695 705//705
f 706//706 705//705 695//695
f 695//695 696//696 706//706
f 707//707 706//706 696//696
f 696//696 697//697 707//707
f 708//708 707//707 697//697
f 697//697 698//698 708//708
f 709//709 708//708 698//698
f 698//698 699//699 709//709
f 710//710 709//709 699//699
f 699//699 700//700 710//710
f 701//701 710//710 700//700
f 700//700 691//691 701//701
f 601//601 610//610 556//556
f 556//556 527//527 601//601
f 602//602 601//601 527//527
f 527//527 491//491 602//602
f 603//603 602//602 491//491
f 491//491 485//485 603//603
f 604//604 603//603 485//485
f 485//485 487//487 604//604
f 605//605 604//604 487//487
f 487//487 486//486 605//605
f 606//606 605//605 486//486
f 486//486 510//510 606//606
f 607//607 606//606 510//510
f 510//510 523//523 607//607
f 608//608 607//607 523//523
f 523//523 552//552 608//608
f 609//609 608//608 552//552
f 552//552 556//556 609//609
f 610//610 609//609 556//556
