v 6.12323e-17 -4.37114e-08 -1
v -0.587785 -3.53633e-08 -0.809017
v -0.951056 -1.35076e-08 -0.309017
v -0.951056 1.35076e-08 0.309017
v -0.587785 3.53633e-08 0.809017
v -1.83697e-16 4.37114e-08 1
v 0.587785 3.53633e-08 0.809017
v 0.951056 1.35076e-08 0.309017
v 0.951056 -1.35076e-08 -0.309017
v 0.587785 -3.53633e-08 -0.809017
v 6.12323e-17 0.00999996 -1
v -1.76336 0.0299999 -2.42705
v -0.951056 0.00999999 -0.309017
v -2.85317 0.03 0.927051
v -0.587785 0.01 0.809017
v -5.51091e-16 0.0300001 3
v 0.587785 0.01 0.809017
v 2.85317 0.03 0.927051
v 0.951056 0.00999999 -0.309017
v 1.76336 0.0299999 -2.42705
v 1.19209e-09 0.31 -1.2
v -2.11603 0.93 -2.91246
v -1.14127 0.31 -0.37082
v -3.4238 0.93 1.11246
v -0.705342 0.31 0.97082
v 3.57628e-09 0.93 3.6
v 0.705342 0.31 0.97082
v 3.4238 0.93 1.11246
v 1.14127 0.31 -0.37082
v 2.11603 0.93 -2.91246
v 6.12323e-17 0.51 -1
v -1.76336 1.53 -2.42705
v -0.951056 0.51 -0.309017
v -2.85317 1.53 0.927051
v -0.587785 0.51 0.809017
v -5.51091e-16 1.53 3
v 0.587785 0.51 0.809017
v 2.85317 1.53 0.927051
v 0.951056 0.51 -0.309017
v 1.76336 1.53 -2.42705
v -5.96047e-10 0.41 -0.9
v -0.529007 0.41 -0.728115
v -0.855951 0.41 -0.278115
v -0.855951 0.41 0.278115
v -0.529007 0.41 0.728115
v -5.96047e-10 0.41 0.9
v 0.529007 0.41 0.728115
v 0.855951 0.41 0.278115
v 0.855951 0.41 -0.278115
v 0.529007 0.41 -0.728115
vn 0.00384966 -0.999878 -0.0151561
vn -0.00582702 -0.999979 -0.00283752
vn -0.0180563 -0.999772 -0.0113934
vn -0.012562 -0.999836 0.0130245
vn -0.0111047 -0.999896 0.00923515
vn 0.00489276 -0.999946 0.00918827
vn 0.00445978 -0.999928 0.0111796
vn 0.00867662 -0.999961 -0.00153541
vn 0.0302419 -0.999541 -0.00198117
vn 0.00204154 -0.999891 -0.0145917
vn 0.325169 -0.601311 -0.729856
vn -0.359512 -0.913999 -0.188034
vn -0.593652 -0.601311 -0.534792
vn -0.289926 -0.913999 0.28381
vn -0.692066 -0.601311 0.399337
vn 0.180328 -0.913999 0.363438
vn 0.165932 -0.601311 0.781596
vn 0.401375 -0.913999 -0.0591932
vn 0.794617 -0.601311 0.0837159
vn 0.0677355 -0.913999 -0.400022
vn 0.0149994 0 -0.999888
vn -0.569709 -1.733e-08 -0.821846
vn -0.946315 -1.55393e-08 -0.323247
vn -0.957672 5.199e-08 0.287861
vn -0.599854 -2.3309e-08 0.80011
vn -0.0221649 -3.466e-08 0.999754
vn 0.575585 1.55393e-08 0.817742
vn 0.943974 -3.466e-08 0.330021
vn 0.955585 2.3309e-08 -0.294717
vn 0.605573 1.733e-08 -0.79579
vn -0.367227 0.838 -0.403608
vn 0.231965 0.972329 0.0277138
vn -0.497334 0.838 0.224532
vn 0.0980387 0.972329 -0.212048
vn 0.059858 0.838 0.542377
vn -0.171374 0.972329 -0.158767
vn 0.534328 0.838 0.110675
vn -0.203954 0.972329 0.113925
vn 0.270375 0.838 -0.473976
vn 0.0453238 0.972329 0.229176
vn -0.077594 0.877291 0.473645
vn 0.197212 0.919028 0.341314
vn 0.272291 0.951893 0.140562
vn 0.244697 0.968199 -0.0520986
vn 0.186492 0.964972 -0.184525
vn 0.0352625 0.940988 -0.336598
vn -0.172816 0.923056 -0.343662
vn -0.413865 0.891529 -0.184097
vn -0.173413 0.984492 0.0265243
vn -0.176944 0.964375 0.19665
f 10//10 9//9 8//8
f 1//1 10//10 8//8
f 2//2 1//1 8//8
f 2//2 8//8 7//7
f 2//2 7//7 6//6
f 2//2 6//6 5//5
f 3//3 2//2 5//5
f 3//3 5//5 4//4
f 12//12 11//11 1//1
f 1//1 2//2 12//12
f 13//13 12//12 2//2
f 2//2 3//3 13//13
f 14//14 13//13 3//3
f 3//3 4//4 14//14
f 15//15 14//14 4//4
f 4//4 5//5 15//15
f 16//16 15//15 5//5
f 5//5 6//6 16//16
f 17//17 16//16 6//6
f 6//6 7//7 17//17
f 18//18 17//17 7//7
f 7//7 8//8 18//18
f 19//19 18//18 8//8
f 8//8 9//9 19//19
f 20//20 19//19 9//9
f 9//9 10//10 20//20
f 11//11 20//20 10//10
f 10//10 1//1 11//11
f 22//22 21//21 11//11
f 11//11 12//12 22//22
f 23//23 22//22 12//12
f 12//12 13//13 23//23
f 24//24 23//23 13//13
f 13//13 14//14 24//24
f 25//25 24//24 14//14
f 14//14 15//15 25//25
f 26//26 25//25 15//15
f 15//15 16//16 26//26
f 27//27 26//26 16//16
f 16//16 17//17 27//27
f 28//28 27//27 17//17
f 17//17 18//18 28//28
f 29//29 28//28 18//18
f 18//18 19//19 29//29
f 30//30 29//29 19//19
f 19//19 20//20 30//30
f 21//21 30//30 20//20
f 20//20 11//11 21//21
f 32//32 31//31 21//21
f 21//21 22//22 32//32
f 33//33 32//32 22//22
f 22//22 23//23 33//33
f 34//34 33//33 23//23
f 23//23 24//24 34//34
f 35//35 34//34 24//24
f 24//24 25//25 35//35
f 36//36 35//35 25//25
f 25//25 26//26 36//36
f 37//37 36//36 26//26
f 26//26 27//27 37//37
f 38//38 37//37 27//27
f 27//27 28//28 38//38
f 39//39 38//38 28//28
f 28//28 29//29 39//39
f 40//40 39//39 29//29
f 29//29 30//30 40//40
f 31//31 40//40 30//30
f 30//30 21//21 31//31
f 42//42 41//41 31//31
f 31//31 32//32 42//42
f 43//43 42//42 32//32
f 32//32 33//33 43//43
f 44//44 43//43 33//33
f 33//33 34//34 44//44
f 45//45 44//44 34//34
f 34//34 35//35 45//45
f 46//46 45//45 35//35
f 35//35 36//36 46//46
f 47//47 46//46 36//36
f 36//36 37//37 47//47
f 48//48 47//47 37//37
f 37//37 38//38 48//48
f 49//49 48//48 38//38
f 38//38 39//39 49//49
f 50//50 49//49 39//39
f 39//39 40//40 50//50
f 41//41 50//50 40//40
f 40//40 31//31 41//41
f 50//50 41//41 42//42
f 50//50 42//42 43//43
f 50//50 43//43 44//44
f 49//49 50//50 44//44
f 49//49 44//44 45//45
f 49//49 45//45 46//46
f 49//49 46//46 47//47
f 49//49 47//47 48//48
